solid OpenSCAD_Model
  facet normal -0.866025 -0.5 0
    outer loop
      vertex 3.65 3 0
      vertex 2.85 4.38564 2
      vertex 2.85 4.38564 0
    endloop
  endfacet
  facet normal -0.866025 -0.5 0
    outer loop
      vertex 2.85 4.38564 2
      vertex 3.65 3 0
      vertex 3.65 3 2
    endloop
  endfacet
  facet normal 0.866025 -0.5 0
    outer loop
      vertex 0.450001 3 2
      vertex 1.25 4.38564 0
      vertex 1.25 4.38564 2
    endloop
  endfacet
  facet normal 0.866025 -0.5 0
    outer loop
      vertex 1.25 4.38564 0
      vertex 0.450001 3 2
      vertex 0.450001 3 0
    endloop
  endfacet
  facet normal 0 -1 0
    outer loop
      vertex 1.25 4.38564 0
      vertex 2.85 4.38564 2
      vertex 1.25 4.38564 2
    endloop
  endfacet
  facet normal 0 -1 -0
    outer loop
      vertex 2.85 4.38564 2
      vertex 1.25 4.38564 0
      vertex 2.85 4.38564 0
    endloop
  endfacet
  facet normal 0 0 1
    outer loop
      vertex 12 6 2
      vertex 11.55 3 2
      vertex 12 0 2
    endloop
  endfacet
  facet normal 0 0 1
    outer loop
      vertex 12 6 2
      vertex 10.75 4.38564 2
      vertex 11.55 3 2
    endloop
  endfacet
  facet normal 0 0 1
    outer loop
      vertex 12 6 2
      vertex 9.15 4.38564 2
      vertex 10.75 4.38564 2
    endloop
  endfacet
  facet normal 0 0 1
    outer loop
      vertex 9.15 4.38564 2
      vertex 3.65 3 2
      vertex 8.35 3 2
    endloop
  endfacet
  facet normal 0 0 1
    outer loop
      vertex 2.85 4.38564 2
      vertex 9.15 4.38564 2
      vertex 12 6 2
    endloop
  endfacet
  facet normal 0 0 1
    outer loop
      vertex 9.15 4.38564 2
      vertex 2.85 4.38564 2
      vertex 3.65 3 2
    endloop
  endfacet
  facet normal -0 0 1
    outer loop
      vertex 0 6 2
      vertex 2.85 4.38564 2
      vertex 12 6 2
    endloop
  endfacet
  facet normal 0 0 1
    outer loop
      vertex 1.25 4.38564 2
      vertex 0 6 2
      vertex 0.450001 3 2
    endloop
  endfacet
  facet normal 0 0 1
    outer loop
      vertex 2.85 4.38564 2
      vertex 0 6 2
      vertex 1.25 4.38564 2
    endloop
  endfacet
  facet normal -0 0 1
    outer loop
      vertex 10.75 1.61436 2
      vertex 12 0 2
      vertex 11.55 3 2
    endloop
  endfacet
  facet normal -0 0 1
    outer loop
      vertex 9.15 1.61436 2
      vertex 12 0 2
      vertex 10.75 1.61436 2
    endloop
  endfacet
  facet normal -0 0 1
    outer loop
      vertex 3.65 3 2
      vertex 9.15 1.61436 2
      vertex 8.35 3 2
    endloop
  endfacet
  facet normal 0 0 1
    outer loop
      vertex 2.85 1.61436 2
      vertex 9.15 1.61436 2
      vertex 3.65 3 2
    endloop
  endfacet
  facet normal 0 0 1
    outer loop
      vertex 9.15 1.61436 2
      vertex 2.85 1.61436 2
      vertex 12 0 2
    endloop
  endfacet
  facet normal 0 0 1
    outer loop
      vertex 0 0 2
      vertex 2.85 1.61436 2
      vertex 1.25 1.61436 2
    endloop
  endfacet
  facet normal 0 0 1
    outer loop
      vertex 2.85 1.61436 2
      vertex 0 0 2
      vertex 12 0 2
    endloop
  endfacet
  facet normal 0 0 1
    outer loop
      vertex 0.450001 3 2
      vertex 0 0 2
      vertex 1.25 1.61436 2
    endloop
  endfacet
  facet normal 0 0 1
    outer loop
      vertex 0 0 2
      vertex 0.450001 3 2
      vertex 0 6 2
    endloop
  endfacet
  facet normal -0.866025 0.5 0
    outer loop
      vertex 2.85 1.61436 0
      vertex 3.65 3 2
      vertex 3.65 3 0
    endloop
  endfacet
  facet normal -0.866025 0.5 0
    outer loop
      vertex 3.65 3 2
      vertex 2.85 1.61436 0
      vertex 2.85 1.61436 2
    endloop
  endfacet
  facet normal 0 0 -1
    outer loop
      vertex 12 0 0
      vertex 11.55 3 0
      vertex 12 6 0
    endloop
  endfacet
  facet normal 0 0 -1
    outer loop
      vertex 12 0 0
      vertex 10.75 1.61436 0
      vertex 11.55 3 0
    endloop
  endfacet
  facet normal 0 0 -1
    outer loop
      vertex 12 0 0
      vertex 9.15 1.61436 0
      vertex 10.75 1.61436 0
    endloop
  endfacet
  facet normal 0 0 -1
    outer loop
      vertex 9.15 1.61436 0
      vertex 3.65 3 0
      vertex 8.35 3 0
    endloop
  endfacet
  facet normal 0 0 -1
    outer loop
      vertex 2.85 1.61436 0
      vertex 9.15 1.61436 0
      vertex 12 0 0
    endloop
  endfacet
  facet normal 0 0 -1
    outer loop
      vertex 9.15 1.61436 0
      vertex 2.85 1.61436 0
      vertex 3.65 3 0
    endloop
  endfacet
  facet normal 0 0 -1
    outer loop
      vertex 0 0 0
      vertex 2.85 1.61436 0
      vertex 12 0 0
    endloop
  endfacet
  facet normal -0 0 -1
    outer loop
      vertex 1.25 1.61436 0
      vertex 0 0 0
      vertex 0.450001 3 0
    endloop
  endfacet
  facet normal -0 0 -1
    outer loop
      vertex 2.85 1.61436 0
      vertex 0 0 0
      vertex 1.25 1.61436 0
    endloop
  endfacet
  facet normal 0 0 -1
    outer loop
      vertex 10.75 4.38564 0
      vertex 12 6 0
      vertex 11.55 3 0
    endloop
  endfacet
  facet normal 0 0 -1
    outer loop
      vertex 9.15 4.38564 0
      vertex 12 6 0
      vertex 10.75 4.38564 0
    endloop
  endfacet
  facet normal 0 0 -1
    outer loop
      vertex 3.65 3 0
      vertex 9.15 4.38564 0
      vertex 8.35 3 0
    endloop
  endfacet
  facet normal 0 0 -1
    outer loop
      vertex 2.85 4.38564 0
      vertex 9.15 4.38564 0
      vertex 3.65 3 0
    endloop
  endfacet
  facet normal 0 0 -1
    outer loop
      vertex 9.15 4.38564 0
      vertex 2.85 4.38564 0
      vertex 12 6 0
    endloop
  endfacet
  facet normal 0 0 -1
    outer loop
      vertex 0 6 0
      vertex 2.85 4.38564 0
      vertex 1.25 4.38564 0
    endloop
  endfacet
  facet normal 0 0 -1
    outer loop
      vertex 2.85 4.38564 0
      vertex 0 6 0
      vertex 12 6 0
    endloop
  endfacet
  facet normal 0 0 -1
    outer loop
      vertex 0.450001 3 0
      vertex 0 6 0
      vertex 1.25 4.38564 0
    endloop
  endfacet
  facet normal 0 0 -1
    outer loop
      vertex 0 6 0
      vertex 0.450001 3 0
      vertex 0 0 0
    endloop
  endfacet
  facet normal 0 1 -0
    outer loop
      vertex 2.85 1.61436 0
      vertex 1.25 1.61436 2
      vertex 2.85 1.61436 2
    endloop
  endfacet
  facet normal 0 1 0
    outer loop
      vertex 1.25 1.61436 2
      vertex 2.85 1.61436 0
      vertex 1.25 1.61436 0
    endloop
  endfacet
  facet normal 0.866025 0.5 0
    outer loop
      vertex 1.25 1.61436 2
      vertex 0.450001 3 0
      vertex 0.450001 3 2
    endloop
  endfacet
  facet normal 0.866025 0.5 0
    outer loop
      vertex 0.450001 3 0
      vertex 1.25 1.61436 2
      vertex 1.25 1.61436 0
    endloop
  endfacet
  facet normal -0.866025 -0.5 0
    outer loop
      vertex 11.55 3 0
      vertex 10.75 4.38564 2
      vertex 10.75 4.38564 0
    endloop
  endfacet
  facet normal -0.866025 -0.5 0
    outer loop
      vertex 10.75 4.38564 2
      vertex 11.55 3 0
      vertex 11.55 3 2
    endloop
  endfacet
  facet normal 0.866025 -0.5 0
    outer loop
      vertex 8.35 3 2
      vertex 9.15 4.38564 0
      vertex 9.15 4.38564 2
    endloop
  endfacet
  facet normal 0.866025 -0.5 0
    outer loop
      vertex 9.15 4.38564 0
      vertex 8.35 3 2
      vertex 8.35 3 0
    endloop
  endfacet
  facet normal 0 -1 0
    outer loop
      vertex 9.15 4.38564 0
      vertex 10.75 4.38564 2
      vertex 9.15 4.38564 2
    endloop
  endfacet
  facet normal 0 -1 -0
    outer loop
      vertex 10.75 4.38564 2
      vertex 9.15 4.38564 0
      vertex 10.75 4.38564 0
    endloop
  endfacet
  facet normal -0.866025 0.5 0
    outer loop
      vertex 10.75 1.61436 0
      vertex 11.55 3 2
      vertex 11.55 3 0
    endloop
  endfacet
  facet normal -0.866025 0.5 0
    outer loop
      vertex 11.55 3 2
      vertex 10.75 1.61436 0
      vertex 10.75 1.61436 2
    endloop
  endfacet
  facet normal 0 1 -0
    outer loop
      vertex 10.75 1.61436 0
      vertex 9.15 1.61436 2
      vertex 10.75 1.61436 2
    endloop
  endfacet
  facet normal 0 1 0
    outer loop
      vertex 9.15 1.61436 2
      vertex 10.75 1.61436 0
      vertex 9.15 1.61436 0
    endloop
  endfacet
  facet normal 0.866025 0.5 0
    outer loop
      vertex 9.15 1.61436 2
      vertex 8.35 3 0
      vertex 8.35 3 2
    endloop
  endfacet
  facet normal 0.866025 0.5 0
    outer loop
      vertex 8.35 3 0
      vertex 9.15 1.61436 2
      vertex 9.15 1.61436 0
    endloop
  endfacet
  facet normal -1 0 0
    outer loop
      vertex 0 0 0
      vertex 0 6 2
      vertex 0 6 0
    endloop
  endfacet
  facet normal -1 -0 0
    outer loop
      vertex 0 6 2
      vertex 0 0 0
      vertex 0 0 2
    endloop
  endfacet
  facet normal 1 -0 0
    outer loop
      vertex 12 0 2
      vertex 12 6 0
      vertex 12 6 2
    endloop
  endfacet
  facet normal 1 0 0
    outer loop
      vertex 12 6 0
      vertex 12 0 2
      vertex 12 0 0
    endloop
  endfacet
  facet normal 0 1 -0
    outer loop
      vertex 12 6 0
      vertex 0 6 2
      vertex 12 6 2
    endloop
  endfacet
  facet normal 0 1 0
    outer loop
      vertex 0 6 2
      vertex 12 6 0
      vertex 0 6 0
    endloop
  endfacet
  facet normal 0 -1 0
    outer loop
      vertex 0 0 0
      vertex 12 0 2
      vertex 0 0 2
    endloop
  endfacet
  facet normal 0 -1 -0
    outer loop
      vertex 12 0 2
      vertex 0 0 0
      vertex 12 0 0
    endloop
  endfacet
endsolid OpenSCAD_Model
