solid OpenSCAD_Model
  facet normal -1 0 0
    outer loop
      vertex 35.5 -2 -2
      vertex 35.5 -1.78361 30
      vertex 35.5 -1.78361 -2
    endloop
  endfacet
  facet normal -1 -0 0
    outer loop
      vertex 35.5 -1.78361 30
      vertex 35.5 -2 -2
      vertex 35.5 -2 30
    endloop
  endfacet
  facet normal -1 0 0
    outer loop
      vertex 35.5 76.7836 -2
      vertex 35.5 77 30
      vertex 35.5 77 -2
    endloop
  endfacet
  facet normal -1 -0 0
    outer loop
      vertex 35.5 77 30
      vertex 35.5 76.7836 -2
      vertex 35.5 76.7836 30
    endloop
  endfacet
  facet normal 0 0 1
    outer loop
      vertex 37.5 0.205428 30
      vertex 35.5 -1.78361 30
      vertex 37.5 0 30
    endloop
  endfacet
  facet normal -0 0 1
    outer loop
      vertex 33.5802 0.205428 30
      vertex 35.5 -1.78361 30
      vertex 37.5 0.205428 30
    endloop
  endfacet
  facet normal 0 0 1
    outer loop
      vertex 33.5802 0.205428 30
      vertex 33.3711 -1.78361 30
      vertex 35.5 -1.78361 30
    endloop
  endfacet
  facet normal 0 0 1
    outer loop
      vertex 25.9119 1.83538 30
      vertex 33.3711 -1.78361 30
      vertex 33.5802 0.205428 30
    endloop
  endfacet
  facet normal 0 0 1
    outer loop
      vertex 25.9119 1.83538 30
      vertex 25.2938 -0.0667315 30
      vertex 33.3711 -1.78361 30
    endloop
  endfacet
  facet normal 0 0 1
    outer loop
      vertex 18.75 5.02405 30
      vertex 25.2938 -0.0667315 30
      vertex 25.9119 1.83538 30
    endloop
  endfacet
  facet normal 0 0 1
    outer loop
      vertex 18.75 5.02405 30
      vertex 17.75 3.292 30
      vertex 25.2938 -0.0667315 30
    endloop
  endfacet
  facet normal 0 0 1
    outer loop
      vertex 12.4076 9.63207 30
      vertex 17.75 3.292 30
      vertex 18.75 5.02405 30
    endloop
  endfacet
  facet normal 0 0 1
    outer loop
      vertex 12.4076 9.63207 30
      vertex 11.0693 8.14578 30
      vertex 17.75 3.292 30
    endloop
  endfacet
  facet normal 0 0 1
    outer loop
      vertex 7.16186 15.4581 30
      vertex 11.0693 8.14578 30
      vertex 12.4076 9.63207 30
    endloop
  endfacet
  facet normal 0 0 1
    outer loop
      vertex 7.16186 15.4581 30
      vertex 5.54383 14.2825 30
      vertex 11.0693 8.14578 30
    endloop
  endfacet
  facet normal 0 0 1
    outer loop
      vertex 3.24204 22.2474 30
      vertex 5.54383 14.2825 30
      vertex 7.16186 15.4581 30
    endloop
  endfacet
  facet normal 0 0 1
    outer loop
      vertex 3.24204 22.2474 30
      vertex 1.41495 21.4339 30
      vertex 5.54383 14.2825 30
    endloop
  endfacet
  facet normal 0 0 1
    outer loop
      vertex 0.819465 29.7033 30
      vertex 1.41495 21.4339 30
      vertex 3.24204 22.2474 30
    endloop
  endfacet
  facet normal 0 0 1
    outer loop
      vertex -1.13683 29.2875 30
      vertex 0.819465 29.7033 30
      vertex 0 37.5 30
    endloop
  endfacet
  facet normal 0 0 1
    outer loop
      vertex -2 37.5 30
      vertex 0 37.5 30
      vertex -1.13683 45.7125 30
    endloop
  endfacet
  facet normal 0 0 1
    outer loop
      vertex 0.819465 29.7033 30
      vertex -1.13683 29.2875 30
      vertex 1.41495 21.4339 30
    endloop
  endfacet
  facet normal 0 0 1
    outer loop
      vertex 0 37.5 30
      vertex -2 37.5 30
      vertex -1.13683 29.2875 30
    endloop
  endfacet
  facet normal 0 0 1
    outer loop
      vertex 114.5 77 30
      vertex 112.5 75 30
      vertex 114.5 76.7836 30
    endloop
  endfacet
  facet normal 0 0 1
    outer loop
      vertex 114.5 77 30
      vertex 37.5 75 30
      vertex 112.5 75 30
    endloop
  endfacet
  facet normal -0 0 1
    outer loop
      vertex 35.5 77 30
      vertex 37.5 75 30
      vertex 114.5 77 30
    endloop
  endfacet
  facet normal -0 0 1
    outer loop
      vertex 35.5 76.7836 30
      vertex 37.5 75 30
      vertex 35.5 77 30
    endloop
  endfacet
  facet normal 0 0 1
    outer loop
      vertex 37.5 75 30
      vertex 35.5 76.7836 30
      vertex 37.5 74.7946 30
    endloop
  endfacet
  facet normal 0 0 1
    outer loop
      vertex 35.5 76.7836 30
      vertex 33.5802 74.7946 30
      vertex 37.5 74.7946 30
    endloop
  endfacet
  facet normal -0 0 1
    outer loop
      vertex 33.3711 76.7836 30
      vertex 33.5802 74.7946 30
      vertex 35.5 76.7836 30
    endloop
  endfacet
  facet normal 0 0 1
    outer loop
      vertex 33.3711 76.7836 30
      vertex 25.9119 73.1646 30
      vertex 33.5802 74.7946 30
    endloop
  endfacet
  facet normal -0 0 1
    outer loop
      vertex 25.2938 75.0667 30
      vertex 25.9119 73.1646 30
      vertex 33.3711 76.7836 30
    endloop
  endfacet
  facet normal 0 0 1
    outer loop
      vertex 25.2938 75.0667 30
      vertex 18.75 69.976 30
      vertex 25.9119 73.1646 30
    endloop
  endfacet
  facet normal -0 0 1
    outer loop
      vertex 17.75 71.708 30
      vertex 18.75 69.976 30
      vertex 25.2938 75.0667 30
    endloop
  endfacet
  facet normal 0 0 1
    outer loop
      vertex 17.75 71.708 30
      vertex 12.4076 65.3679 30
      vertex 18.75 69.976 30
    endloop
  endfacet
  facet normal -0 0 1
    outer loop
      vertex 11.0693 66.8542 30
      vertex 12.4076 65.3679 30
      vertex 17.75 71.708 30
    endloop
  endfacet
  facet normal 0 0 1
    outer loop
      vertex 11.0693 66.8542 30
      vertex 7.16186 59.5419 30
      vertex 12.4076 65.3679 30
    endloop
  endfacet
  facet normal -0 0 1
    outer loop
      vertex 5.54383 60.7175 30
      vertex 7.16186 59.5419 30
      vertex 11.0693 66.8542 30
    endloop
  endfacet
  facet normal 0 0 1
    outer loop
      vertex 5.54383 60.7175 30
      vertex 3.24204 52.7526 30
      vertex 7.16186 59.5419 30
    endloop
  endfacet
  facet normal -0 0 1
    outer loop
      vertex 1.41495 53.5661 30
      vertex 3.24204 52.7526 30
      vertex 5.54383 60.7175 30
    endloop
  endfacet
  facet normal 0 0 1
    outer loop
      vertex 1.41495 53.5661 30
      vertex 0.819465 45.2967 30
      vertex 3.24204 52.7526 30
    endloop
  endfacet
  facet normal -0 0 1
    outer loop
      vertex -1.13683 45.7125 30
      vertex 0.819465 45.2967 30
      vertex 1.41495 53.5661 30
    endloop
  endfacet
  facet normal 0 0 1
    outer loop
      vertex 0.819465 45.2967 30
      vertex -1.13683 45.7125 30
      vertex 0 37.5 30
    endloop
  endfacet
  facet normal 0 0 1
    outer loop
      vertex 150 37.5 30
      vertex 152 37.5 30
      vertex 151.137 45.7125 30
    endloop
  endfacet
  facet normal 0 0 1
    outer loop
      vertex 152 37.5 30
      vertex 150 37.5 30
      vertex 151.137 29.2875 30
    endloop
  endfacet
  facet normal 0 0 1
    outer loop
      vertex 151.137 45.7125 30
      vertex 149.181 45.2967 30
      vertex 150 37.5 30
    endloop
  endfacet
  facet normal 0 0 1
    outer loop
      vertex 148.585 53.5661 30
      vertex 149.181 45.2967 30
      vertex 151.137 45.7125 30
    endloop
  endfacet
  facet normal 0 0 1
    outer loop
      vertex 148.585 53.5661 30
      vertex 146.758 52.7526 30
      vertex 149.181 45.2967 30
    endloop
  endfacet
  facet normal 0 0 1
    outer loop
      vertex 144.456 60.7175 30
      vertex 146.758 52.7526 30
      vertex 148.585 53.5661 30
    endloop
  endfacet
  facet normal 0 0 1
    outer loop
      vertex 144.456 60.7175 30
      vertex 142.838 59.5419 30
      vertex 146.758 52.7526 30
    endloop
  endfacet
  facet normal 0 0 1
    outer loop
      vertex 138.931 66.8542 30
      vertex 142.838 59.5419 30
      vertex 144.456 60.7175 30
    endloop
  endfacet
  facet normal 0 0 1
    outer loop
      vertex 138.931 66.8542 30
      vertex 137.592 65.3679 30
      vertex 142.838 59.5419 30
    endloop
  endfacet
  facet normal 0 0 1
    outer loop
      vertex 132.25 71.708 30
      vertex 137.592 65.3679 30
      vertex 138.931 66.8542 30
    endloop
  endfacet
  facet normal 0 0 1
    outer loop
      vertex 132.25 71.708 30
      vertex 131.25 69.976 30
      vertex 137.592 65.3679 30
    endloop
  endfacet
  facet normal 0 0 1
    outer loop
      vertex 124.706 75.0667 30
      vertex 131.25 69.976 30
      vertex 132.25 71.708 30
    endloop
  endfacet
  facet normal 0 0 1
    outer loop
      vertex 124.706 75.0667 30
      vertex 124.088 73.1646 30
      vertex 131.25 69.976 30
    endloop
  endfacet
  facet normal 0 0 1
    outer loop
      vertex 116.629 76.7836 30
      vertex 124.088 73.1646 30
      vertex 124.706 75.0667 30
    endloop
  endfacet
  facet normal 0 0 1
    outer loop
      vertex 116.629 76.7836 30
      vertex 116.42 74.7946 30
      vertex 124.088 73.1646 30
    endloop
  endfacet
  facet normal -0 0 1
    outer loop
      vertex 114.5 76.7836 30
      vertex 116.42 74.7946 30
      vertex 116.629 76.7836 30
    endloop
  endfacet
  facet normal 0 0 1
    outer loop
      vertex 112.5 74.7946 30
      vertex 114.5 76.7836 30
      vertex 112.5 75 30
    endloop
  endfacet
  facet normal 0 0 1
    outer loop
      vertex 114.5 76.7836 30
      vertex 112.5 74.7946 30
      vertex 116.42 74.7946 30
    endloop
  endfacet
  facet normal -0 0 1
    outer loop
      vertex 149.181 29.7033 30
      vertex 151.137 29.2875 30
      vertex 150 37.5 30
    endloop
  endfacet
  facet normal 0 0 1
    outer loop
      vertex 149.181 29.7033 30
      vertex 148.585 21.4339 30
      vertex 151.137 29.2875 30
    endloop
  endfacet
  facet normal -0 0 1
    outer loop
      vertex 146.758 22.2474 30
      vertex 148.585 21.4339 30
      vertex 149.181 29.7033 30
    endloop
  endfacet
  facet normal 0 0 1
    outer loop
      vertex 146.758 22.2474 30
      vertex 144.456 14.2825 30
      vertex 148.585 21.4339 30
    endloop
  endfacet
  facet normal -0 0 1
    outer loop
      vertex 142.838 15.4581 30
      vertex 144.456 14.2825 30
      vertex 146.758 22.2474 30
    endloop
  endfacet
  facet normal 0 0 1
    outer loop
      vertex 142.838 15.4581 30
      vertex 138.931 8.14578 30
      vertex 144.456 14.2825 30
    endloop
  endfacet
  facet normal -0 0 1
    outer loop
      vertex 137.592 9.63207 30
      vertex 138.931 8.14578 30
      vertex 142.838 15.4581 30
    endloop
  endfacet
  facet normal 0 0 1
    outer loop
      vertex 137.592 9.63207 30
      vertex 132.25 3.292 30
      vertex 138.931 8.14578 30
    endloop
  endfacet
  facet normal -0 0 1
    outer loop
      vertex 131.25 5.02405 30
      vertex 132.25 3.292 30
      vertex 137.592 9.63207 30
    endloop
  endfacet
  facet normal 0 0 1
    outer loop
      vertex 131.25 5.02405 30
      vertex 124.706 -0.0667315 30
      vertex 132.25 3.292 30
    endloop
  endfacet
  facet normal -0 0 1
    outer loop
      vertex 124.088 1.83538 30
      vertex 124.706 -0.0667315 30
      vertex 131.25 5.02405 30
    endloop
  endfacet
  facet normal 0 0 1
    outer loop
      vertex 124.088 1.83538 30
      vertex 116.629 -1.78361 30
      vertex 124.706 -0.0667315 30
    endloop
  endfacet
  facet normal -0 0 1
    outer loop
      vertex 116.42 0.205428 30
      vertex 116.629 -1.78361 30
      vertex 124.088 1.83538 30
    endloop
  endfacet
  facet normal 0 0 1
    outer loop
      vertex 116.42 0.205428 30
      vertex 114.5 -1.78361 30
      vertex 116.629 -1.78361 30
    endloop
  endfacet
  facet normal -0 0 1
    outer loop
      vertex 112.5 0.205428 30
      vertex 114.5 -1.78361 30
      vertex 116.42 0.205428 30
    endloop
  endfacet
  facet normal -0 0 1
    outer loop
      vertex 112.5 0 30
      vertex 114.5 -1.78361 30
      vertex 112.5 0.205428 30
    endloop
  endfacet
  facet normal 0 0 1
    outer loop
      vertex 114.5 -1.78361 30
      vertex 112.5 0 30
      vertex 114.5 -2 30
    endloop
  endfacet
  facet normal -0 0 1
    outer loop
      vertex 37.5 0 30
      vertex 114.5 -2 30
      vertex 112.5 0 30
    endloop
  endfacet
  facet normal 0 0 1
    outer loop
      vertex 35.5 -2 30
      vertex 37.5 0 30
      vertex 35.5 -1.78361 30
    endloop
  endfacet
  facet normal 0 0 1
    outer loop
      vertex 37.5 0 30
      vertex 35.5 -2 30
      vertex 114.5 -2 30
    endloop
  endfacet
  facet normal 1 -0 0
    outer loop
      vertex 114.5 -2 30
      vertex 114.5 -1.78361 -2
      vertex 114.5 -1.78361 30
    endloop
  endfacet
  facet normal 1 0 0
    outer loop
      vertex 114.5 -1.78361 -2
      vertex 114.5 -2 30
      vertex 114.5 -2 -2
    endloop
  endfacet
  facet normal 1 -0 0
    outer loop
      vertex 114.5 76.7836 30
      vertex 114.5 77 -2
      vertex 114.5 77 30
    endloop
  endfacet
  facet normal 1 0 0
    outer loop
      vertex 114.5 77 -2
      vertex 114.5 76.7836 30
      vertex 114.5 76.7836 -2
    endloop
  endfacet
  facet normal 0 0 -1
    outer loop
      vertex 25.2938 -0.0667315 -2
      vertex 35.5 -1.78361 -2
      vertex 33.3711 -1.78361 -2
    endloop
  endfacet
  facet normal 0 0 -1
    outer loop
      vertex 17.75 3.292 -2
      vertex 35.5 -1.78361 -2
      vertex 25.2938 -0.0667315 -2
    endloop
  endfacet
  facet normal 0 0 -1
    outer loop
      vertex 35.5 -1.78361 -2
      vertex 17.75 3.292 -2
      vertex 35.5 76.7836 -2
    endloop
  endfacet
  facet normal -0 0 -1
    outer loop
      vertex 35.5 76.7836 -2
      vertex 25.2938 75.0667 -2
      vertex 33.3711 76.7836 -2
    endloop
  endfacet
  facet normal 0 0 -1
    outer loop
      vertex 17.75 71.708 -2
      vertex 35.5 76.7836 -2
      vertex 17.75 3.292 -2
    endloop
  endfacet
  facet normal 0 0 -1
    outer loop
      vertex 35.5 76.7836 -2
      vertex 17.75 71.708 -2
      vertex 25.2938 75.0667 -2
    endloop
  endfacet
  facet normal 0 0 -1
    outer loop
      vertex 11.0693 8.14578 -2
      vertex 17.75 71.708 -2
      vertex 17.75 3.292 -2
    endloop
  endfacet
  facet normal 0 0 -1
    outer loop
      vertex 11.0693 8.14578 -2
      vertex 11.0693 66.8542 -2
      vertex 17.75 71.708 -2
    endloop
  endfacet
  facet normal 0 0 -1
    outer loop
      vertex 5.54383 14.2825 -2
      vertex 11.0693 66.8542 -2
      vertex 11.0693 8.14578 -2
    endloop
  endfacet
  facet normal 0 0 -1
    outer loop
      vertex 5.54383 14.2825 -2
      vertex 5.54383 60.7175 -2
      vertex 11.0693 66.8542 -2
    endloop
  endfacet
  facet normal 0 0 -1
    outer loop
      vertex 1.41495 21.4339 -2
      vertex 5.54383 60.7175 -2
      vertex 5.54383 14.2825 -2
    endloop
  endfacet
  facet normal 0 0 -1
    outer loop
      vertex 1.41495 21.4339 -2
      vertex 1.41495 53.5661 -2
      vertex 5.54383 60.7175 -2
    endloop
  endfacet
  facet normal 0 0 -1
    outer loop
      vertex -1.13683 29.2875 -2
      vertex 1.41495 53.5661 -2
      vertex 1.41495 21.4339 -2
    endloop
  endfacet
  facet normal 0 0 -1
    outer loop
      vertex -1.13683 29.2875 -2
      vertex -1.13683 45.7125 -2
      vertex 1.41495 53.5661 -2
    endloop
  endfacet
  facet normal 0 -0 -1
    outer loop
      vertex -1.13683 45.7125 -2
      vertex -1.13683 29.2875 -2
      vertex -2 37.5 -2
    endloop
  endfacet
  facet normal 0 0 -1
    outer loop
      vertex 35.5 -1.78361 -2
      vertex 114.5 -1.78361 -2
      vertex 114.5 -2 -2
    endloop
  endfacet
  facet normal 0 0 -1
    outer loop
      vertex 114.5 -1.78361 -2
      vertex 35.5 -1.78361 -2
      vertex 114.5 76.7836 -2
    endloop
  endfacet
  facet normal 0 0 -1
    outer loop
      vertex 35.5 -1.78361 -2
      vertex 114.5 -2 -2
      vertex 35.5 -2 -2
    endloop
  endfacet
  facet normal 0 0 -1
    outer loop
      vertex 35.5 76.7836 -2
      vertex 114.5 76.7836 -2
      vertex 35.5 -1.78361 -2
    endloop
  endfacet
  facet normal 0 0 -1
    outer loop
      vertex 114.5 76.7836 -2
      vertex 35.5 76.7836 -2
      vertex 114.5 77 -2
    endloop
  endfacet
  facet normal -0 0 -1
    outer loop
      vertex 114.5 77 -2
      vertex 35.5 76.7836 -2
      vertex 35.5 77 -2
    endloop
  endfacet
  facet normal 0 0 -1
    outer loop
      vertex 151.137 29.2875 -2
      vertex 151.137 45.7125 -2
      vertex 152 37.5 -2
    endloop
  endfacet
  facet normal 0 0 -1
    outer loop
      vertex 148.585 21.4339 -2
      vertex 151.137 45.7125 -2
      vertex 151.137 29.2875 -2
    endloop
  endfacet
  facet normal 0 0 -1
    outer loop
      vertex 148.585 21.4339 -2
      vertex 148.585 53.5661 -2
      vertex 151.137 45.7125 -2
    endloop
  endfacet
  facet normal 0 0 -1
    outer loop
      vertex 144.456 14.2825 -2
      vertex 148.585 53.5661 -2
      vertex 148.585 21.4339 -2
    endloop
  endfacet
  facet normal 0 0 -1
    outer loop
      vertex 144.456 14.2825 -2
      vertex 144.456 60.7175 -2
      vertex 148.585 53.5661 -2
    endloop
  endfacet
  facet normal 0 0 -1
    outer loop
      vertex 138.931 8.14578 -2
      vertex 144.456 60.7175 -2
      vertex 144.456 14.2825 -2
    endloop
  endfacet
  facet normal 0 0 -1
    outer loop
      vertex 138.931 8.14578 -2
      vertex 138.931 66.8542 -2
      vertex 144.456 60.7175 -2
    endloop
  endfacet
  facet normal 0 0 -1
    outer loop
      vertex 132.25 3.292 -2
      vertex 138.931 66.8542 -2
      vertex 138.931 8.14578 -2
    endloop
  endfacet
  facet normal 0 0 -1
    outer loop
      vertex 132.25 3.292 -2
      vertex 132.25 71.708 -2
      vertex 138.931 66.8542 -2
    endloop
  endfacet
  facet normal 0 0 -1
    outer loop
      vertex 114.5 -1.78361 -2
      vertex 132.25 3.292 -2
      vertex 124.706 -0.0667315 -2
    endloop
  endfacet
  facet normal -0 0 -1
    outer loop
      vertex 132.25 3.292 -2
      vertex 114.5 -1.78361 -2
      vertex 132.25 71.708 -2
    endloop
  endfacet
  facet normal 0 0 -1
    outer loop
      vertex 114.5 -1.78361 -2
      vertex 124.706 -0.0667315 -2
      vertex 116.629 -1.78361 -2
    endloop
  endfacet
  facet normal 0 0 -1
    outer loop
      vertex 114.5 76.7836 -2
      vertex 132.25 71.708 -2
      vertex 114.5 -1.78361 -2
    endloop
  endfacet
  facet normal 0 0 -1
    outer loop
      vertex 132.25 71.708 -2
      vertex 114.5 76.7836 -2
      vertex 124.706 75.0667 -2
    endloop
  endfacet
  facet normal 0 0 -1
    outer loop
      vertex 124.706 75.0667 -2
      vertex 114.5 76.7836 -2
      vertex 116.629 76.7836 -2
    endloop
  endfacet
  facet normal 0 -1 0
    outer loop
      vertex 44 -2 0
      vertex 110 -2 15
      vertex 44 -2 15
    endloop
  endfacet
  facet normal 0 -1 -0
    outer loop
      vertex 110 -2 15
      vertex 44 -2 0
      vertex 110 -2 0
    endloop
  endfacet
  facet normal 0 -1 0
    outer loop
      vertex 44 -2 15
      vertex 35.5 -2 30
      vertex 40 -2 15
    endloop
  endfacet
  facet normal 0 -1 0
    outer loop
      vertex 35.5 -2 -2
      vertex 40 -2 15
      vertex 35.5 -2 30
    endloop
  endfacet
  facet normal 0 -1 0
    outer loop
      vertex 35.5 -2 -2
      vertex 44 -2 0
      vertex 40 -2 0
    endloop
  endfacet
  facet normal 0 -1 0
    outer loop
      vertex 44 -2 0
      vertex 114.5 -2 -2
      vertex 110 -2 0
    endloop
  endfacet
  facet normal 0 -1 -0
    outer loop
      vertex 44 -2 0
      vertex 35.5 -2 -2
      vertex 114.5 -2 -2
    endloop
  endfacet
  facet normal 0 -1 -0
    outer loop
      vertex 40 -2 15
      vertex 35.5 -2 -2
      vertex 40 -2 0
    endloop
  endfacet
  facet normal 0 -1 0
    outer loop
      vertex 35.5 -2 30
      vertex 44 -2 15
      vertex 114.5 -2 30
    endloop
  endfacet
  facet normal 0 -1 0
    outer loop
      vertex 110 -2 15
      vertex 114.5 -2 30
      vertex 44 -2 15
    endloop
  endfacet
  facet normal 0 -1 0
    outer loop
      vertex 114 -2 15
      vertex 114.5 -2 30
      vertex 110 -2 15
    endloop
  endfacet
  facet normal 0 -1 0
    outer loop
      vertex 114.5 -2 -2
      vertex 114 -2 15
      vertex 114 -2 0
    endloop
  endfacet
  facet normal 0 -1 0
    outer loop
      vertex 114 -2 15
      vertex 114.5 -2 -2
      vertex 114.5 -2 30
    endloop
  endfacet
  facet normal 0 -1 0
    outer loop
      vertex 110 -2 0
      vertex 114.5 -2 -2
      vertex 114 -2 0
    endloop
  endfacet
  facet normal 0 1 -0
    outer loop
      vertex 114.5 77 -2
      vertex 35.5 77 30
      vertex 114.5 77 30
    endloop
  endfacet
  facet normal 0 1 0
    outer loop
      vertex 35.5 77 30
      vertex 114.5 77 -2
      vertex 35.5 77 -2
    endloop
  endfacet
  facet normal 0 1 -0
    outer loop
      vertex 35.5 76.7836 -2
      vertex 33.3711 76.7836 30
      vertex 35.5 76.7836 30
    endloop
  endfacet
  facet normal 0 1 0
    outer loop
      vertex 33.3711 76.7836 30
      vertex 35.5 76.7836 -2
      vertex 33.3711 76.7836 -2
    endloop
  endfacet
  facet normal -0.743145 0.669131 0
    outer loop
      vertex 5.54383 60.7175 -2
      vertex 11.0693 66.8542 30
      vertex 11.0693 66.8542 -2
    endloop
  endfacet
  facet normal -0.743145 0.669131 0
    outer loop
      vertex 11.0693 66.8542 30
      vertex 5.54383 60.7175 -2
      vertex 5.54383 60.7175 30
    endloop
  endfacet
  facet normal -0.406737 0.913545 0
    outer loop
      vertex 25.2938 75.0667 -2
      vertex 17.75 71.708 30
      vertex 25.2938 75.0667 30
    endloop
  endfacet
  facet normal -0.406737 0.913545 0
    outer loop
      vertex 17.75 71.708 30
      vertex 25.2938 75.0667 -2
      vertex 17.75 71.708 -2
    endloop
  endfacet
  facet normal -0.951057 0.309017 0
    outer loop
      vertex -1.13683 45.7125 -2
      vertex 1.41495 53.5661 30
      vertex 1.41495 53.5661 -2
    endloop
  endfacet
  facet normal -0.951057 0.309017 0
    outer loop
      vertex 1.41495 53.5661 30
      vertex -1.13683 45.7125 -2
      vertex -1.13683 45.7125 30
    endloop
  endfacet
  facet normal -0.866025 0.5 0
    outer loop
      vertex 1.41495 53.5661 -2
      vertex 5.54383 60.7175 30
      vertex 5.54383 60.7175 -2
    endloop
  endfacet
  facet normal -0.866025 0.5 0
    outer loop
      vertex 5.54383 60.7175 30
      vertex 1.41495 53.5661 -2
      vertex 1.41495 53.5661 30
    endloop
  endfacet
  facet normal -0.994522 0.104529 0
    outer loop
      vertex -2 37.5 -2
      vertex -1.13683 45.7125 30
      vertex -1.13683 45.7125 -2
    endloop
  endfacet
  facet normal -0.994522 0.104529 0
    outer loop
      vertex -1.13683 45.7125 30
      vertex -2 37.5 -2
      vertex -2 37.5 30
    endloop
  endfacet
  facet normal -0.587785 0.809017 0
    outer loop
      vertex 17.75 71.708 -2
      vertex 11.0693 66.8542 30
      vertex 17.75 71.708 30
    endloop
  endfacet
  facet normal -0.587785 0.809017 0
    outer loop
      vertex 11.0693 66.8542 30
      vertex 17.75 71.708 -2
      vertex 11.0693 66.8542 -2
    endloop
  endfacet
  facet normal -0.207911 0.978148 0
    outer loop
      vertex 33.3711 76.7836 -2
      vertex 25.2938 75.0667 30
      vertex 33.3711 76.7836 30
    endloop
  endfacet
  facet normal -0.207911 0.978148 0
    outer loop
      vertex 25.2938 75.0667 30
      vertex 33.3711 76.7836 -2
      vertex 25.2938 75.0667 -2
    endloop
  endfacet
  facet normal -0.406737 -0.913545 0
    outer loop
      vertex 17.75 3.292 -2
      vertex 25.2938 -0.0667315 30
      vertex 17.75 3.292 30
    endloop
  endfacet
  facet normal -0.406737 -0.913545 -0
    outer loop
      vertex 25.2938 -0.0667315 30
      vertex 17.75 3.292 -2
      vertex 25.2938 -0.0667315 -2
    endloop
  endfacet
  facet normal 0 -1 0
    outer loop
      vertex 33.3711 -1.78361 -2
      vertex 35.5 -1.78361 30
      vertex 33.3711 -1.78361 30
    endloop
  endfacet
  facet normal 0 -1 -0
    outer loop
      vertex 35.5 -1.78361 30
      vertex 33.3711 -1.78361 -2
      vertex 35.5 -1.78361 -2
    endloop
  endfacet
  facet normal -0.743145 -0.669131 0
    outer loop
      vertex 11.0693 8.14578 -2
      vertex 5.54383 14.2825 30
      vertex 5.54383 14.2825 -2
    endloop
  endfacet
  facet normal -0.743145 -0.669131 0
    outer loop
      vertex 5.54383 14.2825 30
      vertex 11.0693 8.14578 -2
      vertex 11.0693 8.14578 30
    endloop
  endfacet
  facet normal -0.951057 -0.309017 0
    outer loop
      vertex 1.41495 21.4339 -2
      vertex -1.13683 29.2875 30
      vertex -1.13683 29.2875 -2
    endloop
  endfacet
  facet normal -0.951057 -0.309017 0
    outer loop
      vertex -1.13683 29.2875 30
      vertex 1.41495 21.4339 -2
      vertex 1.41495 21.4339 30
    endloop
  endfacet
  facet normal -0.994522 -0.104529 0
    outer loop
      vertex -1.13683 29.2875 -2
      vertex -2 37.5 30
      vertex -2 37.5 -2
    endloop
  endfacet
  facet normal -0.994522 -0.104529 0
    outer loop
      vertex -2 37.5 30
      vertex -1.13683 29.2875 -2
      vertex -1.13683 29.2875 30
    endloop
  endfacet
  facet normal -0.207912 -0.978148 0
    outer loop
      vertex 25.2938 -0.0667315 -2
      vertex 33.3711 -1.78361 30
      vertex 25.2938 -0.0667315 30
    endloop
  endfacet
  facet normal -0.207912 -0.978148 -0
    outer loop
      vertex 33.3711 -1.78361 30
      vertex 25.2938 -0.0667315 -2
      vertex 33.3711 -1.78361 -2
    endloop
  endfacet
  facet normal -0.587785 -0.809017 0
    outer loop
      vertex 11.0693 8.14578 -2
      vertex 17.75 3.292 30
      vertex 11.0693 8.14578 30
    endloop
  endfacet
  facet normal -0.587785 -0.809017 -0
    outer loop
      vertex 17.75 3.292 30
      vertex 11.0693 8.14578 -2
      vertex 17.75 3.292 -2
    endloop
  endfacet
  facet normal -0.866025 -0.5 0
    outer loop
      vertex 5.54383 14.2825 -2
      vertex 1.41495 21.4339 30
      vertex 1.41495 21.4339 -2
    endloop
  endfacet
  facet normal -0.866025 -0.5 0
    outer loop
      vertex 1.41495 21.4339 30
      vertex 5.54383 14.2825 -2
      vertex 5.54383 14.2825 30
    endloop
  endfacet
  facet normal 0.994522 0.104529 0
    outer loop
      vertex 152 37.5 30
      vertex 151.137 45.7125 -2
      vertex 151.137 45.7125 30
    endloop
  endfacet
  facet normal 0.994522 0.104529 0
    outer loop
      vertex 151.137 45.7125 -2
      vertex 152 37.5 30
      vertex 152 37.5 -2
    endloop
  endfacet
  facet normal 0 1 -0
    outer loop
      vertex 116.629 76.7836 -2
      vertex 114.5 76.7836 30
      vertex 116.629 76.7836 30
    endloop
  endfacet
  facet normal 0 1 0
    outer loop
      vertex 114.5 76.7836 30
      vertex 116.629 76.7836 -2
      vertex 114.5 76.7836 -2
    endloop
  endfacet
  facet normal 0.587785 0.809017 -0
    outer loop
      vertex 138.931 66.8542 -2
      vertex 132.25 71.708 30
      vertex 138.931 66.8542 30
    endloop
  endfacet
  facet normal 0.587785 0.809017 0
    outer loop
      vertex 132.25 71.708 30
      vertex 138.931 66.8542 -2
      vertex 132.25 71.708 -2
    endloop
  endfacet
  facet normal 0.743145 -0.669131 0
    outer loop
      vertex 138.931 8.14578 30
      vertex 144.456 14.2825 -2
      vertex 144.456 14.2825 30
    endloop
  endfacet
  facet normal 0.743145 -0.669131 0
    outer loop
      vertex 144.456 14.2825 -2
      vertex 138.931 8.14578 30
      vertex 138.931 8.14578 -2
    endloop
  endfacet
  facet normal 0.866025 0.5 0
    outer loop
      vertex 148.585 53.5661 30
      vertex 144.456 60.7175 -2
      vertex 144.456 60.7175 30
    endloop
  endfacet
  facet normal 0.866025 0.5 0
    outer loop
      vertex 144.456 60.7175 -2
      vertex 148.585 53.5661 30
      vertex 148.585 53.5661 -2
    endloop
  endfacet
  facet normal 0.951057 0.309016 0
    outer loop
      vertex 151.137 45.7125 30
      vertex 148.585 53.5661 -2
      vertex 148.585 53.5661 30
    endloop
  endfacet
  facet normal 0.951057 0.309016 0
    outer loop
      vertex 148.585 53.5661 -2
      vertex 151.137 45.7125 30
      vertex 151.137 45.7125 -2
    endloop
  endfacet
  facet normal 0.743145 0.669131 0
    outer loop
      vertex 144.456 60.7175 30
      vertex 138.931 66.8542 -2
      vertex 138.931 66.8542 30
    endloop
  endfacet
  facet normal 0.743145 0.669131 0
    outer loop
      vertex 138.931 66.8542 -2
      vertex 144.456 60.7175 30
      vertex 144.456 60.7175 -2
    endloop
  endfacet
  facet normal 0.207912 0.978148 -0
    outer loop
      vertex 124.706 75.0667 -2
      vertex 116.629 76.7836 30
      vertex 124.706 75.0667 30
    endloop
  endfacet
  facet normal 0.207912 0.978148 0
    outer loop
      vertex 116.629 76.7836 30
      vertex 124.706 75.0667 -2
      vertex 116.629 76.7836 -2
    endloop
  endfacet
  facet normal 0.406737 0.913545 -0
    outer loop
      vertex 132.25 71.708 -2
      vertex 124.706 75.0667 30
      vertex 132.25 71.708 30
    endloop
  endfacet
  facet normal 0.406737 0.913545 0
    outer loop
      vertex 124.706 75.0667 30
      vertex 132.25 71.708 -2
      vertex 124.706 75.0667 -2
    endloop
  endfacet
  facet normal 0.207912 -0.978148 0
    outer loop
      vertex 116.629 -1.78361 -2
      vertex 124.706 -0.0667315 30
      vertex 116.629 -1.78361 30
    endloop
  endfacet
  facet normal 0.207912 -0.978148 0
    outer loop
      vertex 124.706 -0.0667315 30
      vertex 116.629 -1.78361 -2
      vertex 124.706 -0.0667315 -2
    endloop
  endfacet
  facet normal 0.587785 -0.809017 0
    outer loop
      vertex 132.25 3.292 -2
      vertex 138.931 8.14578 30
      vertex 132.25 3.292 30
    endloop
  endfacet
  facet normal 0.587785 -0.809017 0
    outer loop
      vertex 138.931 8.14578 30
      vertex 132.25 3.292 -2
      vertex 138.931 8.14578 -2
    endloop
  endfacet
  facet normal 0 -1 0
    outer loop
      vertex 114.5 -1.78361 -2
      vertex 116.629 -1.78361 30
      vertex 114.5 -1.78361 30
    endloop
  endfacet
  facet normal 0 -1 -0
    outer loop
      vertex 116.629 -1.78361 30
      vertex 114.5 -1.78361 -2
      vertex 116.629 -1.78361 -2
    endloop
  endfacet
  facet normal 0.406736 -0.913546 0
    outer loop
      vertex 124.706 -0.0667315 -2
      vertex 132.25 3.292 30
      vertex 124.706 -0.0667315 30
    endloop
  endfacet
  facet normal 0.406736 -0.913546 0
    outer loop
      vertex 132.25 3.292 30
      vertex 124.706 -0.0667315 -2
      vertex 132.25 3.292 -2
    endloop
  endfacet
  facet normal 0.951057 -0.309016 0
    outer loop
      vertex 148.585 21.4339 30
      vertex 151.137 29.2875 -2
      vertex 151.137 29.2875 30
    endloop
  endfacet
  facet normal 0.951057 -0.309016 0
    outer loop
      vertex 151.137 29.2875 -2
      vertex 148.585 21.4339 30
      vertex 148.585 21.4339 -2
    endloop
  endfacet
  facet normal 0.866025 -0.5 0
    outer loop
      vertex 144.456 14.2825 30
      vertex 148.585 21.4339 -2
      vertex 148.585 21.4339 30
    endloop
  endfacet
  facet normal 0.866025 -0.5 0
    outer loop
      vertex 148.585 21.4339 -2
      vertex 144.456 14.2825 30
      vertex 144.456 14.2825 -2
    endloop
  endfacet
  facet normal 0.994522 -0.104529 0
    outer loop
      vertex 151.137 29.2875 30
      vertex 152 37.5 -2
      vertex 152 37.5 30
    endloop
  endfacet
  facet normal 0.994522 -0.104529 0
    outer loop
      vertex 152 37.5 -2
      vertex 151.137 29.2875 30
      vertex 151.137 29.2875 -2
    endloop
  endfacet
  facet normal 1 -0 0
    outer loop
      vertex 37.5 0 30
      vertex 37.5 0.205428 0
      vertex 37.5 0.205428 30
    endloop
  endfacet
  facet normal 1 0 0
    outer loop
      vertex 37.5 0.205428 0
      vertex 37.5 0 30
      vertex 37.5 0 0
    endloop
  endfacet
  facet normal 1 -0 0
    outer loop
      vertex 37.5 74.7946 30
      vertex 37.5 75 0
      vertex 37.5 75 30
    endloop
  endfacet
  facet normal 1 0 0
    outer loop
      vertex 37.5 75 0
      vertex 37.5 74.7946 30
      vertex 37.5 74.7946 0
    endloop
  endfacet
  facet normal -1 0 0
    outer loop
      vertex 112.5 0 15
      vertex 112.5 0.205428 0
      vertex 112.5 0 0
    endloop
  endfacet
  facet normal -1 0 0
    outer loop
      vertex 112.5 0.205428 0
      vertex 112.5 0 15
      vertex 112.5 0.205428 30
    endloop
  endfacet
  facet normal -1 -0 0
    outer loop
      vertex 112.5 0.205428 30
      vertex 112.5 0 15
      vertex 112.5 0 30
    endloop
  endfacet
  facet normal -1 0 0
    outer loop
      vertex 112.5 74.7946 0
      vertex 112.5 75 30
      vertex 112.5 75 0
    endloop
  endfacet
  facet normal -1 -0 0
    outer loop
      vertex 112.5 75 30
      vertex 112.5 74.7946 0
      vertex 112.5 74.7946 30
    endloop
  endfacet
  facet normal 0 -1 0
    outer loop
      vertex 37.5 75 0
      vertex 112.5 75 30
      vertex 37.5 75 30
    endloop
  endfacet
  facet normal 0 -1 -0
    outer loop
      vertex 112.5 75 30
      vertex 37.5 75 0
      vertex 112.5 75 0
    endloop
  endfacet
  facet normal 0 0 1
    outer loop
      vertex 25.9119 73.1646 0
      vertex 37.5 74.7946 0
      vertex 33.5802 74.7946 0
    endloop
  endfacet
  facet normal 0 0 1
    outer loop
      vertex 18.75 69.976 0
      vertex 37.5 74.7946 0
      vertex 25.9119 73.1646 0
    endloop
  endfacet
  facet normal 0 0 1
    outer loop
      vertex 37.5 74.7946 0
      vertex 18.75 69.976 0
      vertex 37.5 0.205428 0
    endloop
  endfacet
  facet normal 0 0 1
    outer loop
      vertex 37.5 0.205428 0
      vertex 25.9119 1.83538 0
      vertex 33.5802 0.205428 0
    endloop
  endfacet
  facet normal -0 0 1
    outer loop
      vertex 18.75 5.02405 0
      vertex 37.5 0.205428 0
      vertex 18.75 69.976 0
    endloop
  endfacet
  facet normal 0 0 1
    outer loop
      vertex 37.5 0.205428 0
      vertex 18.75 5.02405 0
      vertex 25.9119 1.83538 0
    endloop
  endfacet
  facet normal -0 0 1
    outer loop
      vertex 12.4076 65.3679 0
      vertex 18.75 5.02405 0
      vertex 18.75 69.976 0
    endloop
  endfacet
  facet normal 0 0 1
    outer loop
      vertex 12.4076 65.3679 0
      vertex 12.4076 9.63207 0
      vertex 18.75 5.02405 0
    endloop
  endfacet
  facet normal -0 0 1
    outer loop
      vertex 7.16186 59.5419 0
      vertex 12.4076 9.63207 0
      vertex 12.4076 65.3679 0
    endloop
  endfacet
  facet normal 0 0 1
    outer loop
      vertex 7.16186 59.5419 0
      vertex 7.16186 15.4581 0
      vertex 12.4076 9.63207 0
    endloop
  endfacet
  facet normal -0 0 1
    outer loop
      vertex 3.24204 52.7526 0
      vertex 7.16186 15.4581 0
      vertex 7.16186 59.5419 0
    endloop
  endfacet
  facet normal 0 0 1
    outer loop
      vertex 3.24204 52.7526 0
      vertex 3.24204 22.2474 0
      vertex 7.16186 15.4581 0
    endloop
  endfacet
  facet normal -0 0 1
    outer loop
      vertex 0.819465 45.2967 0
      vertex 3.24204 22.2474 0
      vertex 3.24204 52.7526 0
    endloop
  endfacet
  facet normal 0 0 1
    outer loop
      vertex 0.819465 45.2967 0
      vertex 0.819465 29.7033 0
      vertex 3.24204 22.2474 0
    endloop
  endfacet
  facet normal 0 -0 1
    outer loop
      vertex 0.819465 29.7033 0
      vertex 0.819465 45.2967 0
      vertex 0 37.5 0
    endloop
  endfacet
  facet normal 0 0 1
    outer loop
      vertex 37.5 74.7946 0
      vertex 112.5 74.7946 0
      vertex 112.5 75 0
    endloop
  endfacet
  facet normal 0 0 1
    outer loop
      vertex 112.5 74.7946 0
      vertex 110 0 0
      vertex 112.5 0.205428 0
    endloop
  endfacet
  facet normal 0 0 1
    outer loop
      vertex 112.5 0.205428 0
      vertex 110 0 0
      vertex 112.5 0 0
    endloop
  endfacet
  facet normal 0 0 1
    outer loop
      vertex 112.5 74.7946 0
      vertex 44 0 0
      vertex 110 0 0
    endloop
  endfacet
  facet normal 0 0 1
    outer loop
      vertex 112.5 74.7946 0
      vertex 37.5 74.7946 0
      vertex 44 0 0
    endloop
  endfacet
  facet normal 0 0 1
    outer loop
      vertex 37.5 74.7946 0
      vertex 112.5 75 0
      vertex 37.5 75 0
    endloop
  endfacet
  facet normal 0 0 1
    outer loop
      vertex 44 0 0
      vertex 37.5 74.7946 0
      vertex 40 0 0
    endloop
  endfacet
  facet normal -0 0 1
    outer loop
      vertex 37.5 0.205428 0
      vertex 40 0 0
      vertex 37.5 74.7946 0
    endloop
  endfacet
  facet normal 0 0 1
    outer loop
      vertex 40 0 0
      vertex 37.5 0.205428 0
      vertex 37.5 0 0
    endloop
  endfacet
  facet normal 0 0 1
    outer loop
      vertex 149.181 45.2967 0
      vertex 149.181 29.7033 0
      vertex 150 37.5 0
    endloop
  endfacet
  facet normal 0 0 1
    outer loop
      vertex 146.758 52.7526 0
      vertex 149.181 29.7033 0
      vertex 149.181 45.2967 0
    endloop
  endfacet
  facet normal 0 0 1
    outer loop
      vertex 146.758 52.7526 0
      vertex 146.758 22.2474 0
      vertex 149.181 29.7033 0
    endloop
  endfacet
  facet normal 0 0 1
    outer loop
      vertex 142.838 59.5419 0
      vertex 146.758 22.2474 0
      vertex 146.758 52.7526 0
    endloop
  endfacet
  facet normal 0 0 1
    outer loop
      vertex 142.838 59.5419 0
      vertex 142.838 15.4581 0
      vertex 146.758 22.2474 0
    endloop
  endfacet
  facet normal 0 0 1
    outer loop
      vertex 137.592 65.3679 0
      vertex 142.838 15.4581 0
      vertex 142.838 59.5419 0
    endloop
  endfacet
  facet normal 0 0 1
    outer loop
      vertex 137.592 65.3679 0
      vertex 137.592 9.63207 0
      vertex 142.838 15.4581 0
    endloop
  endfacet
  facet normal 0 0 1
    outer loop
      vertex 131.25 69.976 0
      vertex 137.592 9.63207 0
      vertex 137.592 65.3679 0
    endloop
  endfacet
  facet normal 0 0 1
    outer loop
      vertex 131.25 69.976 0
      vertex 131.25 5.02405 0
      vertex 137.592 9.63207 0
    endloop
  endfacet
  facet normal 0 0 1
    outer loop
      vertex 112.5 74.7946 0
      vertex 131.25 69.976 0
      vertex 124.088 73.1646 0
    endloop
  endfacet
  facet normal 0 0 1
    outer loop
      vertex 131.25 69.976 0
      vertex 112.5 74.7946 0
      vertex 131.25 5.02405 0
    endloop
  endfacet
  facet normal -0 0 1
    outer loop
      vertex 112.5 74.7946 0
      vertex 124.088 73.1646 0
      vertex 116.42 74.7946 0
    endloop
  endfacet
  facet normal 0 0 1
    outer loop
      vertex 112.5 0.205428 0
      vertex 131.25 5.02405 0
      vertex 112.5 74.7946 0
    endloop
  endfacet
  facet normal 0 0 1
    outer loop
      vertex 131.25 5.02405 0
      vertex 112.5 0.205428 0
      vertex 124.088 1.83538 0
    endloop
  endfacet
  facet normal 0 0 1
    outer loop
      vertex 124.088 1.83538 0
      vertex 112.5 0.205428 0
      vertex 116.42 0.205428 0
    endloop
  endfacet
  facet normal 0 1 -0
    outer loop
      vertex 110 0 0
      vertex 44 0 15
      vertex 110 0 15
    endloop
  endfacet
  facet normal 0 1 0
    outer loop
      vertex 44 0 15
      vertex 110 0 0
      vertex 44 0 0
    endloop
  endfacet
  facet normal 0 1 0
    outer loop
      vertex 110 0 15
      vertex 112.5 0 30
      vertex 112.5 0 15
    endloop
  endfacet
  facet normal 0 1 0
    outer loop
      vertex 44 0 15
      vertex 112.5 0 30
      vertex 110 0 15
    endloop
  endfacet
  facet normal 0 1 0
    outer loop
      vertex 112.5 0 30
      vertex 44 0 15
      vertex 37.5 0 30
    endloop
  endfacet
  facet normal 0 1 -0
    outer loop
      vertex 40 0 15
      vertex 37.5 0 30
      vertex 44 0 15
    endloop
  endfacet
  facet normal 0 1 0
    outer loop
      vertex 37.5 0 0
      vertex 40 0 15
      vertex 40 0 0
    endloop
  endfacet
  facet normal 0 1 0
    outer loop
      vertex 40 0 15
      vertex 37.5 0 0
      vertex 37.5 0 30
    endloop
  endfacet
  facet normal 0 1 -0
    outer loop
      vertex 112.5 0 0
      vertex 110 0 15
      vertex 112.5 0 15
    endloop
  endfacet
  facet normal 0 1 0
    outer loop
      vertex 110 0 15
      vertex 112.5 0 0
      vertex 110 0 0
    endloop
  endfacet
  facet normal 0 1 -0
    outer loop
      vertex 44 0 0
      vertex 40 0 15
      vertex 44 0 15
    endloop
  endfacet
  facet normal 0 1 0
    outer loop
      vertex 40 0 15
      vertex 44 0 0
      vertex 40 0 0
    endloop
  endfacet
  facet normal 0 1 -0
    outer loop
      vertex 37.5 0.205428 0
      vertex 33.5802 0.205428 30
      vertex 37.5 0.205428 30
    endloop
  endfacet
  facet normal 0 1 0
    outer loop
      vertex 33.5802 0.205428 30
      vertex 37.5 0.205428 0
      vertex 33.5802 0.205428 0
    endloop
  endfacet
  facet normal 0 -1 0
    outer loop
      vertex 33.5802 74.7946 0
      vertex 37.5 74.7946 30
      vertex 33.5802 74.7946 30
    endloop
  endfacet
  facet normal 0 -1 -0
    outer loop
      vertex 37.5 74.7946 30
      vertex 33.5802 74.7946 0
      vertex 37.5 74.7946 0
    endloop
  endfacet
  facet normal 0.406737 -0.913545 0
    outer loop
      vertex 18.75 69.976 0
      vertex 25.9119 73.1646 30
      vertex 18.75 69.976 30
    endloop
  endfacet
  facet normal 0.406737 -0.913545 0
    outer loop
      vertex 25.9119 73.1646 30
      vertex 18.75 69.976 0
      vertex 25.9119 73.1646 0
    endloop
  endfacet
  facet normal 0.951057 -0.309017 0
    outer loop
      vertex 0.819465 45.2967 30
      vertex 3.24204 52.7526 0
      vertex 3.24204 52.7526 30
    endloop
  endfacet
  facet normal 0.951057 -0.309017 0
    outer loop
      vertex 3.24204 52.7526 0
      vertex 0.819465 45.2967 30
      vertex 0.819465 45.2967 0
    endloop
  endfacet
  facet normal 0.994522 0.104528 0
    outer loop
      vertex 0.819465 29.7033 30
      vertex 0 37.5 0
      vertex 0 37.5 30
    endloop
  endfacet
  facet normal 0.994522 0.104528 0
    outer loop
      vertex 0 37.5 0
      vertex 0.819465 29.7033 30
      vertex 0.819465 29.7033 0
    endloop
  endfacet
  facet normal 0.866025 -0.5 0
    outer loop
      vertex 3.24204 52.7526 30
      vertex 7.16186 59.5419 0
      vertex 7.16186 59.5419 30
    endloop
  endfacet
  facet normal 0.866025 -0.5 0
    outer loop
      vertex 7.16186 59.5419 0
      vertex 3.24204 52.7526 30
      vertex 3.24204 52.7526 0
    endloop
  endfacet
  facet normal 0.587785 -0.809017 0
    outer loop
      vertex 12.4076 65.3679 0
      vertex 18.75 69.976 30
      vertex 12.4076 65.3679 30
    endloop
  endfacet
  facet normal 0.587785 -0.809017 0
    outer loop
      vertex 18.75 69.976 30
      vertex 12.4076 65.3679 0
      vertex 18.75 69.976 0
    endloop
  endfacet
  facet normal 0.207912 -0.978148 0
    outer loop
      vertex 25.9119 73.1646 0
      vertex 33.5802 74.7946 30
      vertex 25.9119 73.1646 30
    endloop
  endfacet
  facet normal 0.207912 -0.978148 0
    outer loop
      vertex 33.5802 74.7946 30
      vertex 25.9119 73.1646 0
      vertex 33.5802 74.7946 0
    endloop
  endfacet
  facet normal 0.743145 -0.669131 0
    outer loop
      vertex 7.16186 59.5419 30
      vertex 12.4076 65.3679 0
      vertex 12.4076 65.3679 30
    endloop
  endfacet
  facet normal 0.743145 -0.669131 0
    outer loop
      vertex 12.4076 65.3679 0
      vertex 7.16186 59.5419 30
      vertex 7.16186 59.5419 0
    endloop
  endfacet
  facet normal 0.406737 0.913545 -0
    outer loop
      vertex 25.9119 1.83538 0
      vertex 18.75 5.02405 30
      vertex 25.9119 1.83538 30
    endloop
  endfacet
  facet normal 0.406737 0.913545 0
    outer loop
      vertex 18.75 5.02405 30
      vertex 25.9119 1.83538 0
      vertex 18.75 5.02405 0
    endloop
  endfacet
  facet normal 0.743145 0.669131 0
    outer loop
      vertex 12.4076 9.63207 30
      vertex 7.16186 15.4581 0
      vertex 7.16186 15.4581 30
    endloop
  endfacet
  facet normal 0.743145 0.669131 0
    outer loop
      vertex 7.16186 15.4581 0
      vertex 12.4076 9.63207 30
      vertex 12.4076 9.63207 0
    endloop
  endfacet
  facet normal 0.951057 0.309017 0
    outer loop
      vertex 3.24204 22.2474 30
      vertex 0.819465 29.7033 0
      vertex 0.819465 29.7033 30
    endloop
  endfacet
  facet normal 0.951057 0.309017 0
    outer loop
      vertex 0.819465 29.7033 0
      vertex 3.24204 22.2474 30
      vertex 3.24204 22.2474 0
    endloop
  endfacet
  facet normal 0.994522 -0.104528 0
    outer loop
      vertex 0 37.5 30
      vertex 0.819465 45.2967 0
      vertex 0.819465 45.2967 30
    endloop
  endfacet
  facet normal 0.994522 -0.104528 0
    outer loop
      vertex 0.819465 45.2967 0
      vertex 0 37.5 30
      vertex 0 37.5 0
    endloop
  endfacet
  facet normal 0.207912 0.978148 -0
    outer loop
      vertex 33.5802 0.205428 0
      vertex 25.9119 1.83538 30
      vertex 33.5802 0.205428 30
    endloop
  endfacet
  facet normal 0.207912 0.978148 0
    outer loop
      vertex 25.9119 1.83538 30
      vertex 33.5802 0.205428 0
      vertex 25.9119 1.83538 0
    endloop
  endfacet
  facet normal 0.866025 0.5 0
    outer loop
      vertex 7.16186 15.4581 30
      vertex 3.24204 22.2474 0
      vertex 3.24204 22.2474 30
    endloop
  endfacet
  facet normal 0.866025 0.5 0
    outer loop
      vertex 3.24204 22.2474 0
      vertex 7.16186 15.4581 30
      vertex 7.16186 15.4581 0
    endloop
  endfacet
  facet normal 0.587785 0.809017 -0
    outer loop
      vertex 18.75 5.02405 0
      vertex 12.4076 9.63207 30
      vertex 18.75 5.02405 30
    endloop
  endfacet
  facet normal 0.587785 0.809017 0
    outer loop
      vertex 12.4076 9.63207 30
      vertex 18.75 5.02405 0
      vertex 12.4076 9.63207 0
    endloop
  endfacet
  facet normal -0.406737 -0.913545 0
    outer loop
      vertex 124.088 73.1646 0
      vertex 131.25 69.976 30
      vertex 124.088 73.1646 30
    endloop
  endfacet
  facet normal -0.406737 -0.913545 -0
    outer loop
      vertex 131.25 69.976 30
      vertex 124.088 73.1646 0
      vertex 131.25 69.976 0
    endloop
  endfacet
  facet normal -0.994522 0.104528 0
    outer loop
      vertex 149.181 29.7033 0
      vertex 150 37.5 30
      vertex 150 37.5 0
    endloop
  endfacet
  facet normal -0.994522 0.104528 0
    outer loop
      vertex 150 37.5 30
      vertex 149.181 29.7033 0
      vertex 149.181 29.7033 30
    endloop
  endfacet
  facet normal 0 1 -0
    outer loop
      vertex 116.42 0.205428 0
      vertex 112.5 0.205428 30
      vertex 116.42 0.205428 30
    endloop
  endfacet
  facet normal 0 1 0
    outer loop
      vertex 112.5 0.205428 30
      vertex 116.42 0.205428 0
      vertex 112.5 0.205428 0
    endloop
  endfacet
  facet normal 0 -1 0
    outer loop
      vertex 112.5 74.7946 0
      vertex 116.42 74.7946 30
      vertex 112.5 74.7946 30
    endloop
  endfacet
  facet normal 0 -1 -0
    outer loop
      vertex 116.42 74.7946 30
      vertex 112.5 74.7946 0
      vertex 116.42 74.7946 0
    endloop
  endfacet
  facet normal -0.743145 0.669131 0
    outer loop
      vertex 137.592 9.63207 0
      vertex 142.838 15.4581 30
      vertex 142.838 15.4581 0
    endloop
  endfacet
  facet normal -0.743145 0.669131 0
    outer loop
      vertex 142.838 15.4581 30
      vertex 137.592 9.63207 0
      vertex 137.592 9.63207 30
    endloop
  endfacet
  facet normal -0.951056 -0.309018 0
    outer loop
      vertex 149.181 45.2967 0
      vertex 146.758 52.7526 30
      vertex 146.758 52.7526 0
    endloop
  endfacet
  facet normal -0.951056 -0.309018 0
    outer loop
      vertex 146.758 52.7526 30
      vertex 149.181 45.2967 0
      vertex 149.181 45.2967 30
    endloop
  endfacet
  facet normal -0.866026 -0.5 0
    outer loop
      vertex 146.758 52.7526 0
      vertex 142.838 59.5419 30
      vertex 142.838 59.5419 0
    endloop
  endfacet
  facet normal -0.866026 -0.5 0
    outer loop
      vertex 142.838 59.5419 30
      vertex 146.758 52.7526 0
      vertex 146.758 52.7526 30
    endloop
  endfacet
  facet normal -0.743144 -0.669131 0
    outer loop
      vertex 142.838 59.5419 0
      vertex 137.592 65.3679 30
      vertex 137.592 65.3679 0
    endloop
  endfacet
  facet normal -0.743144 -0.669131 0
    outer loop
      vertex 137.592 65.3679 30
      vertex 142.838 59.5419 0
      vertex 142.838 59.5419 30
    endloop
  endfacet
  facet normal -0.587786 -0.809017 0
    outer loop
      vertex 131.25 69.976 0
      vertex 137.592 65.3679 30
      vertex 131.25 69.976 30
    endloop
  endfacet
  facet normal -0.587786 -0.809017 -0
    outer loop
      vertex 137.592 65.3679 30
      vertex 131.25 69.976 0
      vertex 137.592 65.3679 0
    endloop
  endfacet
  facet normal -0.207912 -0.978148 0
    outer loop
      vertex 116.42 74.7946 0
      vertex 124.088 73.1646 30
      vertex 116.42 74.7946 30
    endloop
  endfacet
  facet normal -0.207912 -0.978148 -0
    outer loop
      vertex 124.088 73.1646 30
      vertex 116.42 74.7946 0
      vertex 124.088 73.1646 0
    endloop
  endfacet
  facet normal -0.994522 -0.104528 0
    outer loop
      vertex 150 37.5 0
      vertex 149.181 45.2967 30
      vertex 149.181 45.2967 0
    endloop
  endfacet
  facet normal -0.994522 -0.104528 0
    outer loop
      vertex 149.181 45.2967 30
      vertex 150 37.5 0
      vertex 150 37.5 30
    endloop
  endfacet
  facet normal -0.207912 0.978148 0
    outer loop
      vertex 124.088 1.83538 0
      vertex 116.42 0.205428 30
      vertex 124.088 1.83538 30
    endloop
  endfacet
  facet normal -0.207912 0.978148 0
    outer loop
      vertex 116.42 0.205428 30
      vertex 124.088 1.83538 0
      vertex 116.42 0.205428 0
    endloop
  endfacet
  facet normal -0.866026 0.5 0
    outer loop
      vertex 142.838 15.4581 0
      vertex 146.758 22.2474 30
      vertex 146.758 22.2474 0
    endloop
  endfacet
  facet normal -0.866026 0.5 0
    outer loop
      vertex 146.758 22.2474 30
      vertex 142.838 15.4581 0
      vertex 142.838 15.4581 30
    endloop
  endfacet
  facet normal -0.951056 0.309018 0
    outer loop
      vertex 146.758 22.2474 0
      vertex 149.181 29.7033 30
      vertex 149.181 29.7033 0
    endloop
  endfacet
  facet normal -0.951056 0.309018 0
    outer loop
      vertex 149.181 29.7033 30
      vertex 146.758 22.2474 0
      vertex 146.758 22.2474 30
    endloop
  endfacet
  facet normal -0.406736 0.913546 0
    outer loop
      vertex 131.25 5.02405 0
      vertex 124.088 1.83538 30
      vertex 131.25 5.02405 30
    endloop
  endfacet
  facet normal -0.406736 0.913546 0
    outer loop
      vertex 124.088 1.83538 30
      vertex 131.25 5.02405 0
      vertex 124.088 1.83538 0
    endloop
  endfacet
  facet normal -0.587786 0.809017 0
    outer loop
      vertex 137.592 9.63207 0
      vertex 131.25 5.02405 30
      vertex 137.592 9.63207 30
    endloop
  endfacet
  facet normal -0.587786 0.809017 0
    outer loop
      vertex 131.25 5.02405 30
      vertex 137.592 9.63207 0
      vertex 131.25 5.02405 0
    endloop
  endfacet
  facet normal -1 0 0
    outer loop
      vertex 40 -2 0
      vertex 40 -19.0356 7.9981
      vertex 40 -2 15
    endloop
  endfacet
  facet normal -1 0 0
    outer loop
      vertex 40 -2 0
      vertex 40 -19.3163 6.04605
      vertex 40 -19.0356 7.9981
    endloop
  endfacet
  facet normal -1 0 0
    outer loop
      vertex 40 -2 0
      vertex 40 -20.6078 4.55561
      vertex 40 -19.3163 6.04605
    endloop
  endfacet
  facet normal -1 0 0
    outer loop
      vertex 40 -2 0
      vertex 40 -22.5 4
      vertex 40 -20.6078 4.55561
    endloop
  endfacet
  facet normal -1 -0 0
    outer loop
      vertex 40 -25.6837 6.04605
      vertex 40 -30 0
      vertex 40 -25.9644 7.9981
    endloop
  endfacet
  facet normal -1 -0 0
    outer loop
      vertex 40 -24.3922 4.55561
      vertex 40 -30 0
      vertex 40 -25.6837 6.04605
    endloop
  endfacet
  facet normal -1 -0 0
    outer loop
      vertex 40 -22.5 4
      vertex 40 -30 0
      vertex 40 -24.3922 4.55561
    endloop
  endfacet
  facet normal -1 0 0
    outer loop
      vertex 40 -30 0
      vertex 40 -22.5 4
      vertex 40 -2 0
    endloop
  endfacet
  facet normal -1 0 0
    outer loop
      vertex 40 -19.8549 9.79201
      vertex 40 -2 15
      vertex 40 -19.0356 7.9981
    endloop
  endfacet
  facet normal -1 0 0
    outer loop
      vertex 40 -21.5139 10.8582
      vertex 40 -2 15
      vertex 40 -19.8549 9.79201
    endloop
  endfacet
  facet normal -1 0 0
    outer loop
      vertex 40 -30 15
      vertex 40 -21.5139 10.8582
      vertex 40 -23.4861 10.8582
    endloop
  endfacet
  facet normal -1 0 0
    outer loop
      vertex 40 -30 15
      vertex 40 -25.9644 7.9981
      vertex 40 -30 0
    endloop
  endfacet
  facet normal -1 0 0
    outer loop
      vertex 40 -21.5139 10.8582
      vertex 40 -30 15
      vertex 40 -2 15
    endloop
  endfacet
  facet normal -1 0 0
    outer loop
      vertex 40 -25.1451 9.79201
      vertex 40 -30 15
      vertex 40 -23.4861 10.8582
    endloop
  endfacet
  facet normal -1 0 0
    outer loop
      vertex 40 -25.9644 7.9981
      vertex 40 -30 15
      vertex 40 -25.1451 9.79201
    endloop
  endfacet
  facet normal -0 0 1
    outer loop
      vertex 40 -2 15
      vertex 44 -30 15
      vertex 44 -2 15
    endloop
  endfacet
  facet normal 0 0 1
    outer loop
      vertex 44 -30 15
      vertex 40 -2 15
      vertex 40 -30 15
    endloop
  endfacet
  facet normal 1 0 0
    outer loop
      vertex 44 -2 15
      vertex 44 -19.0356 7.9981
      vertex 44 -2 0
    endloop
  endfacet
  facet normal 1 0 0
    outer loop
      vertex 44 -2 15
      vertex 44 -19.8549 9.79201
      vertex 44 -19.0356 7.9981
    endloop
  endfacet
  facet normal 1 0 0
    outer loop
      vertex 44 -2 15
      vertex 44 -21.5139 10.8582
      vertex 44 -19.8549 9.79201
    endloop
  endfacet
  facet normal 1 -0 0
    outer loop
      vertex 44 -30 15
      vertex 44 -21.5139 10.8582
      vertex 44 -2 15
    endloop
  endfacet
  facet normal 1 0 0
    outer loop
      vertex 44 -25.1451 9.79201
      vertex 44 -30 15
      vertex 44 -25.9644 7.9981
    endloop
  endfacet
  facet normal 1 0 0
    outer loop
      vertex 44 -23.4861 10.8582
      vertex 44 -30 15
      vertex 44 -25.1451 9.79201
    endloop
  endfacet
  facet normal 1 0 0
    outer loop
      vertex 44 -21.5139 10.8582
      vertex 44 -30 15
      vertex 44 -23.4861 10.8582
    endloop
  endfacet
  facet normal 1 -0 0
    outer loop
      vertex 44 -19.3163 6.04605
      vertex 44 -2 0
      vertex 44 -19.0356 7.9981
    endloop
  endfacet
  facet normal 1 -0 0
    outer loop
      vertex 44 -20.6078 4.55561
      vertex 44 -2 0
      vertex 44 -19.3163 6.04605
    endloop
  endfacet
  facet normal 1 -0 0
    outer loop
      vertex 44 -22.5 4
      vertex 44 -2 0
      vertex 44 -20.6078 4.55561
    endloop
  endfacet
  facet normal 1 0 0
    outer loop
      vertex 44 -30 0
      vertex 44 -25.9644 7.9981
      vertex 44 -30 15
    endloop
  endfacet
  facet normal 1 0 0
    outer loop
      vertex 44 -22.5 4
      vertex 44 -30 0
      vertex 44 -2 0
    endloop
  endfacet
  facet normal 1 0 0
    outer loop
      vertex 44 -24.3922 4.55561
      vertex 44 -30 0
      vertex 44 -22.5 4
    endloop
  endfacet
  facet normal 1 0 0
    outer loop
      vertex 44 -25.6837 6.04605
      vertex 44 -30 0
      vertex 44 -24.3922 4.55561
    endloop
  endfacet
  facet normal 1 0 0
    outer loop
      vertex 44 -25.9644 7.9981
      vertex 44 -30 0
      vertex 44 -25.6837 6.04605
    endloop
  endfacet
  facet normal 0 0 -1
    outer loop
      vertex 40 -30 0
      vertex 44 -2 0
      vertex 44 -30 0
    endloop
  endfacet
  facet normal -0 0 -1
    outer loop
      vertex 44 -2 0
      vertex 40 -30 0
      vertex 40 -2 0
    endloop
  endfacet
  facet normal 0 -1 0
    outer loop
      vertex 40 -30 0
      vertex 44 -30 15
      vertex 40 -30 15
    endloop
  endfacet
  facet normal 0 -1 -0
    outer loop
      vertex 44 -30 15
      vertex 40 -30 0
      vertex 44 -30 0
    endloop
  endfacet
  facet normal 0 0.989821 0.142315
    outer loop
      vertex 44 -25.6837 6.04605
      vertex 40 -25.9644 7.9981
      vertex 44 -25.9644 7.9981
    endloop
  endfacet
  facet normal 0 0.989821 0.142315
    outer loop
      vertex 40 -25.9644 7.9981
      vertex 44 -25.6837 6.04605
      vertex 40 -25.6837 6.04605
    endloop
  endfacet
  facet normal 0 -0.281733 0.959493
    outer loop
      vertex 40 -20.6078 4.55561
      vertex 44 -22.5 4
      vertex 44 -20.6078 4.55561
    endloop
  endfacet
  facet normal 0 -0.281733 0.959493
    outer loop
      vertex 44 -22.5 4
      vertex 40 -20.6078 4.55561
      vertex 40 -22.5 4
    endloop
  endfacet
  facet normal 0 0 -1
    outer loop
      vertex 40 -23.4861 10.8582
      vertex 44 -21.5139 10.8582
      vertex 44 -23.4861 10.8582
    endloop
  endfacet
  facet normal -0 0 -1
    outer loop
      vertex 44 -21.5139 10.8582
      vertex 40 -23.4861 10.8582
      vertex 40 -21.5139 10.8582
    endloop
  endfacet
  facet normal 0 0.909632 -0.415414
    outer loop
      vertex 44 -25.9644 7.9981
      vertex 40 -25.1451 9.79201
      vertex 44 -25.1451 9.79201
    endloop
  endfacet
  facet normal 0 0.909632 -0.415414
    outer loop
      vertex 40 -25.1451 9.79201
      vertex 44 -25.9644 7.9981
      vertex 40 -25.9644 7.9981
    endloop
  endfacet
  facet normal 0 -0.909632 -0.415415
    outer loop
      vertex 40 -19.0356 7.9981
      vertex 44 -19.8549 9.79201
      vertex 40 -19.8549 9.79201
    endloop
  endfacet
  facet normal 0 -0.909632 -0.415415
    outer loop
      vertex 44 -19.8549 9.79201
      vertex 40 -19.0356 7.9981
      vertex 44 -19.0356 7.9981
    endloop
  endfacet
  facet normal 0 -0.540641 -0.841254
    outer loop
      vertex 40 -21.5139 10.8582
      vertex 44 -19.8549 9.79201
      vertex 44 -21.5139 10.8582
    endloop
  endfacet
  facet normal -0 -0.540641 -0.841254
    outer loop
      vertex 44 -19.8549 9.79201
      vertex 40 -21.5139 10.8582
      vertex 40 -19.8549 9.79201
    endloop
  endfacet
  facet normal 0 -0.989821 0.142315
    outer loop
      vertex 40 -19.3163 6.04605
      vertex 44 -19.0356 7.9981
      vertex 40 -19.0356 7.9981
    endloop
  endfacet
  facet normal 0 -0.989821 0.142315
    outer loop
      vertex 44 -19.0356 7.9981
      vertex 40 -19.3163 6.04605
      vertex 44 -19.3163 6.04605
    endloop
  endfacet
  facet normal 0 -0.755749 0.654861
    outer loop
      vertex 40 -20.6078 4.55561
      vertex 44 -19.3163 6.04605
      vertex 40 -19.3163 6.04605
    endloop
  endfacet
  facet normal 0 -0.755749 0.654861
    outer loop
      vertex 44 -19.3163 6.04605
      vertex 40 -20.6078 4.55561
      vertex 44 -20.6078 4.55561
    endloop
  endfacet
  facet normal 0 0.755749 0.654861
    outer loop
      vertex 44 -24.3922 4.55561
      vertex 40 -25.6837 6.04605
      vertex 44 -25.6837 6.04605
    endloop
  endfacet
  facet normal 0 0.755749 0.654861
    outer loop
      vertex 40 -25.6837 6.04605
      vertex 44 -24.3922 4.55561
      vertex 40 -24.3922 4.55561
    endloop
  endfacet
  facet normal 0 0.540641 -0.841254
    outer loop
      vertex 40 -25.1451 9.79201
      vertex 44 -23.4861 10.8582
      vertex 44 -25.1451 9.79201
    endloop
  endfacet
  facet normal 0 0.540641 -0.841254
    outer loop
      vertex 44 -23.4861 10.8582
      vertex 40 -25.1451 9.79201
      vertex 40 -23.4861 10.8582
    endloop
  endfacet
  facet normal -0 0.281733 0.959493
    outer loop
      vertex 40 -22.5 4
      vertex 44 -24.3922 4.55561
      vertex 44 -22.5 4
    endloop
  endfacet
  facet normal 0 0.281733 0.959493
    outer loop
      vertex 44 -24.3922 4.55561
      vertex 40 -22.5 4
      vertex 40 -24.3922 4.55561
    endloop
  endfacet
  facet normal -1 0 0
    outer loop
      vertex 110 -2 0
      vertex 110 -19.0356 7.9981
      vertex 110 -2 15
    endloop
  endfacet
  facet normal -1 0 0
    outer loop
      vertex 110 -2 0
      vertex 110 -19.3163 6.04605
      vertex 110 -19.0356 7.9981
    endloop
  endfacet
  facet normal -1 0 0
    outer loop
      vertex 110 -2 0
      vertex 110 -20.6078 4.55561
      vertex 110 -19.3163 6.04605
    endloop
  endfacet
  facet normal -1 0 0
    outer loop
      vertex 110 -2 0
      vertex 110 -22.5 4
      vertex 110 -20.6078 4.55561
    endloop
  endfacet
  facet normal -1 -0 0
    outer loop
      vertex 110 -25.6837 6.04605
      vertex 110 -30 0
      vertex 110 -25.9644 7.9981
    endloop
  endfacet
  facet normal -1 -0 0
    outer loop
      vertex 110 -24.3922 4.55561
      vertex 110 -30 0
      vertex 110 -25.6837 6.04605
    endloop
  endfacet
  facet normal -1 -0 0
    outer loop
      vertex 110 -22.5 4
      vertex 110 -30 0
      vertex 110 -24.3922 4.55561
    endloop
  endfacet
  facet normal -1 0 0
    outer loop
      vertex 110 -30 0
      vertex 110 -22.5 4
      vertex 110 -2 0
    endloop
  endfacet
  facet normal -1 0 0
    outer loop
      vertex 110 -19.8549 9.79201
      vertex 110 -2 15
      vertex 110 -19.0356 7.9981
    endloop
  endfacet
  facet normal -1 0 0
    outer loop
      vertex 110 -21.5139 10.8582
      vertex 110 -2 15
      vertex 110 -19.8549 9.79201
    endloop
  endfacet
  facet normal -1 0 0
    outer loop
      vertex 110 -30 15
      vertex 110 -21.5139 10.8582
      vertex 110 -23.4861 10.8582
    endloop
  endfacet
  facet normal -1 0 0
    outer loop
      vertex 110 -30 15
      vertex 110 -25.9644 7.9981
      vertex 110 -30 0
    endloop
  endfacet
  facet normal -1 0 0
    outer loop
      vertex 110 -21.5139 10.8582
      vertex 110 -30 15
      vertex 110 -2 15
    endloop
  endfacet
  facet normal -1 0 0
    outer loop
      vertex 110 -25.1451 9.79201
      vertex 110 -30 15
      vertex 110 -23.4861 10.8582
    endloop
  endfacet
  facet normal -1 0 0
    outer loop
      vertex 110 -25.9644 7.9981
      vertex 110 -30 15
      vertex 110 -25.1451 9.79201
    endloop
  endfacet
  facet normal -0 0 1
    outer loop
      vertex 110 -2 15
      vertex 114 -30 15
      vertex 114 -2 15
    endloop
  endfacet
  facet normal 0 0 1
    outer loop
      vertex 114 -30 15
      vertex 110 -2 15
      vertex 110 -30 15
    endloop
  endfacet
  facet normal 1 0 0
    outer loop
      vertex 114 -2 15
      vertex 114 -19.0356 7.9981
      vertex 114 -2 0
    endloop
  endfacet
  facet normal 1 0 0
    outer loop
      vertex 114 -2 15
      vertex 114 -19.8549 9.79201
      vertex 114 -19.0356 7.9981
    endloop
  endfacet
  facet normal 1 0 0
    outer loop
      vertex 114 -2 15
      vertex 114 -21.5139 10.8582
      vertex 114 -19.8549 9.79201
    endloop
  endfacet
  facet normal 1 -0 0
    outer loop
      vertex 114 -30 15
      vertex 114 -21.5139 10.8582
      vertex 114 -2 15
    endloop
  endfacet
  facet normal 1 0 0
    outer loop
      vertex 114 -25.1451 9.79201
      vertex 114 -30 15
      vertex 114 -25.9644 7.9981
    endloop
  endfacet
  facet normal 1 0 0
    outer loop
      vertex 114 -23.4861 10.8582
      vertex 114 -30 15
      vertex 114 -25.1451 9.79201
    endloop
  endfacet
  facet normal 1 0 0
    outer loop
      vertex 114 -21.5139 10.8582
      vertex 114 -30 15
      vertex 114 -23.4861 10.8582
    endloop
  endfacet
  facet normal 1 -0 0
    outer loop
      vertex 114 -19.3163 6.04605
      vertex 114 -2 0
      vertex 114 -19.0356 7.9981
    endloop
  endfacet
  facet normal 1 -0 0
    outer loop
      vertex 114 -20.6078 4.55561
      vertex 114 -2 0
      vertex 114 -19.3163 6.04605
    endloop
  endfacet
  facet normal 1 -0 0
    outer loop
      vertex 114 -22.5 4
      vertex 114 -2 0
      vertex 114 -20.6078 4.55561
    endloop
  endfacet
  facet normal 1 0 0
    outer loop
      vertex 114 -30 0
      vertex 114 -25.9644 7.9981
      vertex 114 -30 15
    endloop
  endfacet
  facet normal 1 0 0
    outer loop
      vertex 114 -22.5 4
      vertex 114 -30 0
      vertex 114 -2 0
    endloop
  endfacet
  facet normal 1 0 0
    outer loop
      vertex 114 -24.3922 4.55561
      vertex 114 -30 0
      vertex 114 -22.5 4
    endloop
  endfacet
  facet normal 1 0 0
    outer loop
      vertex 114 -25.6837 6.04605
      vertex 114 -30 0
      vertex 114 -24.3922 4.55561
    endloop
  endfacet
  facet normal 1 0 0
    outer loop
      vertex 114 -25.9644 7.9981
      vertex 114 -30 0
      vertex 114 -25.6837 6.04605
    endloop
  endfacet
  facet normal 0 0 -1
    outer loop
      vertex 110 -30 0
      vertex 114 -2 0
      vertex 114 -30 0
    endloop
  endfacet
  facet normal -0 0 -1
    outer loop
      vertex 114 -2 0
      vertex 110 -30 0
      vertex 110 -2 0
    endloop
  endfacet
  facet normal 0 -1 0
    outer loop
      vertex 110 -30 0
      vertex 114 -30 15
      vertex 110 -30 15
    endloop
  endfacet
  facet normal 0 -1 -0
    outer loop
      vertex 114 -30 15
      vertex 110 -30 0
      vertex 114 -30 0
    endloop
  endfacet
  facet normal 0 0.989821 0.142315
    outer loop
      vertex 114 -25.6837 6.04605
      vertex 110 -25.9644 7.9981
      vertex 114 -25.9644 7.9981
    endloop
  endfacet
  facet normal 0 0.989821 0.142315
    outer loop
      vertex 110 -25.9644 7.9981
      vertex 114 -25.6837 6.04605
      vertex 110 -25.6837 6.04605
    endloop
  endfacet
  facet normal 0 -0.281733 0.959493
    outer loop
      vertex 110 -20.6078 4.55561
      vertex 114 -22.5 4
      vertex 114 -20.6078 4.55561
    endloop
  endfacet
  facet normal 0 -0.281733 0.959493
    outer loop
      vertex 114 -22.5 4
      vertex 110 -20.6078 4.55561
      vertex 110 -22.5 4
    endloop
  endfacet
  facet normal 0 0 -1
    outer loop
      vertex 110 -23.4861 10.8582
      vertex 114 -21.5139 10.8582
      vertex 114 -23.4861 10.8582
    endloop
  endfacet
  facet normal -0 0 -1
    outer loop
      vertex 114 -21.5139 10.8582
      vertex 110 -23.4861 10.8582
      vertex 110 -21.5139 10.8582
    endloop
  endfacet
  facet normal 0 0.909632 -0.415414
    outer loop
      vertex 114 -25.9644 7.9981
      vertex 110 -25.1451 9.79201
      vertex 114 -25.1451 9.79201
    endloop
  endfacet
  facet normal 0 0.909632 -0.415414
    outer loop
      vertex 110 -25.1451 9.79201
      vertex 114 -25.9644 7.9981
      vertex 110 -25.9644 7.9981
    endloop
  endfacet
  facet normal 0 -0.909632 -0.415415
    outer loop
      vertex 110 -19.0356 7.9981
      vertex 114 -19.8549 9.79201
      vertex 110 -19.8549 9.79201
    endloop
  endfacet
  facet normal 0 -0.909632 -0.415415
    outer loop
      vertex 114 -19.8549 9.79201
      vertex 110 -19.0356 7.9981
      vertex 114 -19.0356 7.9981
    endloop
  endfacet
  facet normal 0 -0.540641 -0.841254
    outer loop
      vertex 110 -21.5139 10.8582
      vertex 114 -19.8549 9.79201
      vertex 114 -21.5139 10.8582
    endloop
  endfacet
  facet normal -0 -0.540641 -0.841254
    outer loop
      vertex 114 -19.8549 9.79201
      vertex 110 -21.5139 10.8582
      vertex 110 -19.8549 9.79201
    endloop
  endfacet
  facet normal 0 -0.989821 0.142315
    outer loop
      vertex 110 -19.3163 6.04605
      vertex 114 -19.0356 7.9981
      vertex 110 -19.0356 7.9981
    endloop
  endfacet
  facet normal 0 -0.989821 0.142315
    outer loop
      vertex 114 -19.0356 7.9981
      vertex 110 -19.3163 6.04605
      vertex 114 -19.3163 6.04605
    endloop
  endfacet
  facet normal 0 -0.755749 0.654861
    outer loop
      vertex 110 -20.6078 4.55561
      vertex 114 -19.3163 6.04605
      vertex 110 -19.3163 6.04605
    endloop
  endfacet
  facet normal 0 -0.755749 0.654861
    outer loop
      vertex 114 -19.3163 6.04605
      vertex 110 -20.6078 4.55561
      vertex 114 -20.6078 4.55561
    endloop
  endfacet
  facet normal 0 0.755749 0.654861
    outer loop
      vertex 114 -24.3922 4.55561
      vertex 110 -25.6837 6.04605
      vertex 114 -25.6837 6.04605
    endloop
  endfacet
  facet normal 0 0.755749 0.654861
    outer loop
      vertex 110 -25.6837 6.04605
      vertex 114 -24.3922 4.55561
      vertex 110 -24.3922 4.55561
    endloop
  endfacet
  facet normal 0 0.540641 -0.841254
    outer loop
      vertex 110 -25.1451 9.79201
      vertex 114 -23.4861 10.8582
      vertex 114 -25.1451 9.79201
    endloop
  endfacet
  facet normal 0 0.540641 -0.841254
    outer loop
      vertex 114 -23.4861 10.8582
      vertex 110 -25.1451 9.79201
      vertex 110 -23.4861 10.8582
    endloop
  endfacet
  facet normal -0 0.281733 0.959493
    outer loop
      vertex 110 -22.5 4
      vertex 114 -24.3922 4.55561
      vertex 114 -22.5 4
    endloop
  endfacet
  facet normal 0 0.281733 0.959493
    outer loop
      vertex 114 -24.3922 4.55561
      vertex 110 -22.5 4
      vertex 110 -24.3922 4.55561
    endloop
  endfacet
endsolid OpenSCAD_Model
