<?xml version="1.0" encoding="UTF-8" standalone="no"?>
<!-- Created with Inkscape (http://www.inkscape.org/) -->

<svg
   xmlns:dc="http://purl.org/dc/elements/1.1/"
   xmlns:cc="http://creativecommons.org/ns#"
   xmlns:rdf="http://www.w3.org/1999/02/22-rdf-syntax-ns#"
   xmlns:svg="http://www.w3.org/2000/svg"
   xmlns="http://www.w3.org/2000/svg"
   xmlns:sodipodi="http://sodipodi.sourceforge.net/DTD/sodipodi-0.dtd"
   xmlns:inkscape="http://www.inkscape.org/namespaces/inkscape"
   width="210mm"
   height="297mm"
   viewBox="0 0 744.09448819 1052.3622047"
   id="svg2"
   version="1.1"
   inkscape:version="0.91 r13725"
   sodipodi:docname="headlightProfile.svg">
  <defs
     id="defs4" />
  <sodipodi:namedview
     id="base"
     pagecolor="#ffffff"
     bordercolor="#666666"
     borderopacity="1.0"
     inkscape:pageopacity="0.0"
     inkscape:pageshadow="2"
     inkscape:zoom="0.49497475"
     inkscape:cx="-582.42664"
     inkscape:cy="527.54308"
     inkscape:document-units="px"
     inkscape:current-layer="layer1"
     showgrid="true"
     showguides="false"
     guidetolerance="10000"
     inkscape:window-width="1920"
     inkscape:window-height="1031"
     inkscape:window-x="0"
     inkscape:window-y="25"
     inkscape:window-maximized="1">
    <inkscape:grid
       type="xygrid"
       id="grid4136"
       units="mm"
       spacingx="35.433071"
       spacingy="35.433072"
       dotted="false" />
  </sodipodi:namedview>
  <metadata
     id="metadata7">
    <rdf:RDF>
      <cc:Work
         rdf:about="">
        <dc:format>image/svg+xml</dc:format>
        <dc:type
           rdf:resource="http://purl.org/dc/dcmitype/StillImage" />
        <dc:title></dc:title>
      </cc:Work>
    </rdf:RDF>
  </metadata>
  <g
     inkscape:label="Layer 1"
     inkscape:groupmode="layer"
     id="layer1">
    <path
       id="path4143-9"
       style="fill:none;fill-rule:evenodd;stroke:#000000;stroke-width:0.90361464px;stroke-linecap:butt;stroke-linejoin:miter;stroke-opacity:1"
       d="m 178.35979,892.51412 -0.46477,0.008 -1.35444,0.0322 -2.18431,0.0685 -2.95441,0.11668 -3.66471,0.17698 -4.3152,0.2493 -4.90593,0.33367 -5.43684,0.43008 -5.90798,0.53852 -6.31931,0.65902 -6.67086,0.79154 -6.96261,0.93611 -7.19458,1.09272 -7.36675,1.26137 -7.47913,1.44207 -7.531719,1.63479 -7.52451,1.83956 -7.45752,2.05638 -7.33073,2.28522 -7.144149,2.52612 -6.89778,2.77905 -6.59162,3.04403 -6.22567,3.32103 -5.79992,3.61009 -5.31438,3.91118 -4.76905,4.22432 -4.16394,4.54949 -3.49902,4.88671 -2.77431,5.23596 -1.98982,5.59726 -1.14554,5.97059 -0.24145,6.35597 1.65481,2.22186 1.6548,2.2219 1.65481,2.2219 1.65481,2.2219 1.6548,2.2219 1.65481,2.2219 1.65481,2.2219 1.6548,2.2219 1.65481,2.2219 1.65481,2.2219 1.65481,2.2219 1.6548,2.2219 1.65481,2.2218 1.65481,2.2219 1.6548,2.2219 1.65481,2.22191 1.65481,2.2219 1.6548,2.2219 1.65481,2.2219 1.65481,2.2219 1.6548,2.2219 1.65481,2.2219 1.65481,2.2219 1.65481,2.2219 1.6548,2.2219 1.65481,2.2219 1.65481,2.2219 1.6548,2.2219 1.65481,2.2218 1.65481,2.2219 1.6548,2.2219 1.65481,2.2219 1.38853,-0.01 1.388519,0 1.38853,-0.01 1.38852,0 1.38853,-0.01 1.38852,0 1.38853,-0.01 1.38852,0 1.38853,-0.01 1.38852,0 1.38853,-0.01 1.38852,0 1.38853,-0.01 1.38852,0 1.38853,-0.01 1.38853,0 1.38852,-0.01 1.38853,0 1.38852,-0.01 1.38853,0 1.388519,-0.01 1.38853,-0.01 1.38852,0 1.38853,-0.01 1.38852,0 1.38853,-0.01 1.38852,0 1.38853,-0.01 1.38852,0 1.38853,-0.01 1.38852,0 1.38853,-0.01 0.92698,-1.8232 1.04623,-1.7918 1.15996,-1.7587 1.26818,-1.7237 1.37087,-1.687 1.46805,-1.6488 1.5597,-1.6086 1.64583,-1.5668 1.72645,-1.5232 1.80154,-1.478 1.87111,-1.431 1.93516,-1.3822 1.9937,-1.3318 2.04671,-1.2796 2.0942,-1.2257 2.13617,-1.1701 2.17262,-1.1126 2.20356,-1.0536 2.22896,-0.9928 2.24886,-0.9302 2.26323,-0.866 2.27207,-0.7999 2.27541,-0.7322 2.27322,-0.6628 2.26551,-0.5916 2.25228,-0.5186 2.23352,-0.444 2.20926,-0.3677 2.17947,-0.2895 2.14415,-0.2098 2.10333,-0.1282 2.05697,-0.045 2.05807,0.045 2.10607,0.1281 2.14843,0.2096 2.18517,0.2896 2.21627,0.3677 2.24175,0.4441 2.26159,0.5189 2.27581,0.5918 2.28439,0.663 2.28735,0.7325 2.28467,0.8003 2.27637,0.8664 2.26243,0.9306 2.24286,0.9933 2.21767,1.054 2.18685,1.1132 2.15039,1.1706 2.1083,1.2262 2.06059,1.2801 2.00724,1.3323 1.94826,1.3828 1.88366,1.4315 1.81342,1.4785 1.73756,1.5238 1.65606,1.5672 1.56893,1.6091 1.47617,1.6492 1.37779,1.6874 1.27378,1.7241 1.16412,1.759 1.04885,1.7921 0.92794,1.8235 1.42768,0.032 1.42768,0.032 1.42768,0.032 1.42769,0.032 1.42768,0.032 1.42768,0.032 1.42768,0.032 1.42768,0.032 1.42768,0.032 1.42768,0.032 1.42768,0.032 1.42768,0.032 1.42769,0.032 1.42768,0.032 1.42768,0.032 1.42768,0.032 1.42768,0.032 1.42768,0.032 1.42768,0.032 1.42769,0.032 1.42768,0.032 1.42768,0.032 1.42768,0.032 1.42768,0.032 1.42768,0.032 1.42768,0.032 1.42768,0.032 1.42768,0.032 1.42769,0.032 1.42768,0.032 1.42768,0.032 1.42768,0.032 1.65385,-2.2489 1.65385,-2.2488 1.65385,-2.2489 1.65385,-2.2488 1.65385,-2.2488 1.65385,-2.2489 1.65385,-2.2488 1.65385,-2.2488 1.65385,-2.2489 1.65385,-2.2488 1.65385,-2.2489 1.65385,-2.2488 1.65385,-2.2488 1.65385,-2.2489 1.65385,-2.2488 1.65384,-2.2488 1.65385,-2.24891 1.65385,-2.2488 1.65385,-2.2489 1.65385,-2.2488 1.65385,-2.2488 1.65385,-2.2489 1.65385,-2.2488 1.65385,-2.2488 1.65385,-2.2489 1.65385,-2.2488 1.65385,-2.2489 1.65385,-2.2488 1.65385,-2.2488 1.65385,-2.2489 1.65385,-2.2488 1.65385,-2.24884 -0.29453,-6.44484 -1.19188,-6.04819 -2.02977,-5.66412 -2.8082,-5.29265 -3.52717,-4.93378 -4.18667,-4.58751 -4.78673,-4.25381 -5.32731,-3.93274 -5.80843,-3.62424 -6.2301,-3.32834 -6.5923,-3.04504 -6.89504,-2.77433 -7.13832,-2.51622 -7.32214,-2.27071 -7.4465,-2.03779 -7.5114,-1.81746 -7.51684,-1.60973 -7.46281,-1.41459 -7.34932,-1.23206 -7.17638,-1.06211 -6.94397,-0.90476 -6.6521,-0.76 -6.30077,-0.62785 -5.88998,-0.50829 -5.41973,-0.40131 -4.89002,-0.30694 -4.30084,-0.22517 -3.65221,-0.15598 -2.94412,-0.0994 -2.17655,-0.0554 -1.34954,-0.024 z m -0.30133,-16.65819 -1.98964,0.0216 -5.62288,0.15143 -8.73709,0.41097 -11.33227,0.80027 -13.40842,1.31932 -14.96552,1.96813 -16.00359,2.7467 -16.522619,3.65502 -16.522619,4.69311 -16.00359,5.86093 -14.96552,7.15852 -13.40842,8.58588 -11.33227,10.14297 -8.7370904,11.82983 -5.62288,13.64644 -1.98963998,15.59282 4.42907998,5.53642 4.42907,5.5363 4.4290804,5.5364 4.42908,5.5364 4.42907,5.5364 4.42908,5.5363 4.42908,5.53641 4.42907,5.5364 4.42908,5.5364 4.42908,5.5363 4.42908,5.5364 4.42907,5.5364 4.42908,5.5364 4.42908,5.5364 4.42907,5.5363 4.42908,5.5364 3.159549,0 3.15954,0 3.15955,0 3.15954,0 3.15955,0 3.15954,0 3.15955,0 3.15954,0 3.159549,0 3.15955,0 3.15954,0 3.15955,0 3.15954,0 3.15955,0 3.15954,0 3.15955,0 2.04929,-3.9757 2.30735,-3.7832 2.55158,-3.5819 2.78202,-3.3718 2.99862,-3.1531 3.20143,-2.9254 3.39041,-2.689 3.56559,-2.4439 3.72695,-2.1899 3.87449,-1.9272 4.00822,-1.6557 4.12813,-1.3755 4.23425,-1.0863 4.32653,-0.7886 4.40501,-0.4819 4.46967,-0.1666 4.47021,0.166 4.40557,0.4815 4.3271,0.7882 4.23481,1.0861 4.12872,1.3752 4.00879,1.6556 3.87506,1.9271 3.7275,2.1899 3.56611,2.4439 3.39093,2.6892 3.2019,2.9256 2.99907,3.1533 2.78242,3.3721 2.55195,3.5823 2.30765,3.7836 2.04955,3.9761 3.125,0 3.125,0 3.125,0 3.125,0 3.125,0 3.125,0 3.125,0 3.125,0 3.125,0 3.125,0 3.125,0 3.125,0 3.125,0 3.125,0 3.125,0 3.125,0 4.42908,-5.5364 4.42907,-5.5363 4.42908,-5.5364 4.42908,-5.5364 4.42907,-5.5364 4.42908,-5.5364 4.42908,-5.5363 4.42907,-5.5364 4.42908,-5.5364 4.42908,-5.53641 4.42908,-5.5363 4.42907,-5.5364 4.42908,-5.5364 4.42908,-5.5364 4.42907,-5.5363 4.42908,-5.53642 -1.98966,-15.59282 -5.62294,-13.64644 -8.73719,-11.82983 -11.3324,-10.14298 -13.40856,-8.58587 -14.96568,-7.15852 -16.00377,-5.86093 -16.5228,-4.69311 -16.52281,-3.65502 -16.00377,-2.7467 -14.96568,-1.96813 -13.40856,-1.31932 -11.3324,-0.80027 -8.73719,-0.41097 -5.62294,-0.15143 z"
       inkscape:connector-curvature="0" />
  </g>
</svg>
