  0
SECTION
  2
HEADER
  9
$ACADVER
  1
AC1014
  9
$HANDSEED
  5
FFFF
  9
$MEASUREMENT
 70
     1
  0
ENDSEC
  0
SECTION
  2
TABLES
  0
TABLE
  2
VPORT
  5
8
330
0
100
AcDbSymbolTable
 70
     4
  0
VPORT
  5
2E
330
8
100
AcDbSymbolTableRecord
100
AcDbViewportTableRecord
  2
*ACTIVE
 70
     0
 10
0.0
 20
0.0
 11
1.0
 21
1.0
 12
210.0
 22
148.5
 13
0.0
 23
0.0
 14
10.0
 24
10.0
 15
10.0
 25
10.0
 16
0.0
 26
0.0
 36
1.0
 17
0.0
 27
0.0
 37
0.0
 40
341.0
 41
1.24
 42
50.0
 43
0.0
 44
0.0
 50
0.0
 51
0.0
 71
     0
 72
   100
 73
     1
 74
     3
 75
     0
 76
     0
 77
     0
 78
     0
  0
ENDTAB
  0
TABLE
  2
LTYPE
  5
5
330
0
100
AcDbSymbolTable
 70
     1
  0
LTYPE
  5
14
330
5
100
AcDbSymbolTableRecord
100
AcDbLinetypeTableRecord
  2
BYBLOCK
 70
     0
  3

 72
    65
 73
     0
 40
0.0
  0
LTYPE
  5
15
330
5
100
AcDbSymbolTableRecord
100
AcDbLinetypeTableRecord
  2
BYLAYER
 70
     0
  3

 72
    65
 73
     0
 40
0.0
  0
LTYPE
  5
16
330
5
100
AcDbSymbolTableRecord
100
AcDbLinetypeTableRecord
  2
CONTINUOUS
 70
     0
  3
Solid line
 72
    65
 73
     0
 40
0.0
  0
ENDTAB
  0
TABLE
  2
LAYER
  5
2
100
AcDbSymbolTable
 70
2
  0
LAYER
  5
50
100
AcDbSymbolTableRecord
100
AcDbLayerTableRecord
  2
0
 70
0
  6
CONTINUOUS
  0
LAYER
  5
51
100
AcDbSymbolTableRecord
100
AcDbLayerTableRecord
  2
Layer_1
 70
0
  6
CONTINUOUS
  0
ENDTAB
  0
TABLE
  2
STYLE
  5
3
330
0
100
AcDbSymbolTable
 70
     1
  0
STYLE
  5
11
330
3
100
AcDbSymbolTableRecord
100
AcDbTextStyleTableRecord
  2
STANDARD
 70
     0
 40
0.0
 41
1.0
 50
0.0
 71
     0
 42
2.5
  3
txt
  4

  0
ENDTAB
  0
TABLE
  2
VIEW
  5
6
330
0
100
AcDbSymbolTable
 70
     0
  0
ENDTAB
  0
TABLE
  2
UCS
  5
7
330
0
100
AcDbSymbolTable
 70
     0
  0
ENDTAB
  0
TABLE
  2
APPID
  5
9
330
0
100
AcDbSymbolTable
 70
     2
  0
APPID
  5
12
330
9
100
AcDbSymbolTableRecord
100
AcDbRegAppTableRecord
  2
ACAD
 70
     0
  0
ENDTAB
  0
TABLE
  2
DIMSTYLE
  5
A
330
0
100
AcDbSymbolTable
 70
     1
  0
DIMSTYLE
105
27
330
A
100
AcDbSymbolTableRecord
100
AcDbDimStyleTableRecord
  2
ISO-25
 70
     0
  3

  4

  5

  6

  7

 40
1.0
 41
2.5
 42
0.625
 43
3.75
 44
1.25
 45
0.0
 46
0.0
 47
0.0
 48
0.0
140
2.5
141
2.5
142
0.0
143
0.03937007874016
144
1.0
145
0.0
146
1.0
147
0.625
 71
     0
 72
     0
 73
     0
 74
     0
 75
     0
 76
     0
 77
     1
 78
     8
170
     0
171
     3
172
     1
173
     0
174
     0
175
     0
176
     0
177
     0
178
     0
270
     2
271
     2
272
     2
273
     2
274
     3
340
11
275
     0
280
     0
281
     0
282
     0
283
     0
284
     8
285
     0
286
     0
287
     3
288
     0
  0
ENDTAB
  0
TABLE
  2
BLOCK_RECORD
  5
1
330
0
100
AcDbSymbolTable
 70
     1
  0
BLOCK_RECORD
  5
1F
330
1
100
AcDbSymbolTableRecord
100
AcDbBlockTableRecord
  2
*MODEL_SPACE
  0
BLOCK_RECORD
  5
1B
330
1
100
AcDbSymbolTableRecord
100
AcDbBlockTableRecord
  2
*PAPER_SPACE
  0
ENDTAB
  0
ENDSEC
  0
SECTION
  2
BLOCKS
  0
BLOCK
  5
20
330
1F
100
AcDbEntity
  8
0
100
AcDbBlockBegin
  2
*MODEL_SPACE
 70
     0
 10
0.0
 20
0.0
 30
0.0
  3
*MODEL_SPACE
  1

  0
ENDBLK
  5
21
330
1F
100
AcDbEntity
  8
0
100
AcDbBlockEnd
  0
BLOCK
  5
1C
330
1B
100
AcDbEntity
 67
     1
  8
0
100
AcDbBlockBegin
  2
*PAPER_SPACE
  1

  0
ENDBLK
  5
1D
330
1B
100
AcDbEntity
 67
     1
  8
0
100
AcDbBlockEnd
  0
ENDSEC
  0
SECTION
  2
ENTITIES
  0
LWPOLYLINE
  5
100
100
AcDbEntity
  8
Layer_1
 62
7
100
AcDbPolyline
 90
129
 70
1
 10
50.252054
 20
49.813993
 30
0.0
 10
49.690534
 20
49.807897
 30
0.0
 10
48.103632
 20
49.765160
 30
0.0
 10
45.637831
 20
49.649175
 30
0.0
 10
42.439613
 20
49.423321
 30
0.0
 10
38.655458
 20
49.050980
 30
0.0
 10
34.431856
 20
48.495530
 30
0.0
 10
29.915287
 20
47.720350
 30
0.0
 10
25.252237
 20
46.688822
 30
0.0
 10
20.589187
 20
45.364322
 30
0.0
 10
16.072618
 20
43.710238
 30
0.0
 10
11.849016
 20
41.689944
 30
0.0
 10
8.064862
 20
39.266818
 30
0.0
 10
4.866643
 20
36.404247
 30
0.0
 10
2.400842
 20
33.065606
 30
0.0
 10
0.813941
 20
29.214277
 30
0.0
 10
0.252420
 20
24.813637
 30
0.0
 10
1.502405
 20
23.251136
 30
0.0
 10
2.752387
 20
21.688669
 30
0.0
 10
4.002372
 20
20.126174
 30
0.0
 10
5.252356
 20
18.563679
 30
0.0
 10
6.502338
 20
17.001184
 30
0.0
 10
7.752323
 20
15.438717
 30
0.0
 10
9.002308
 20
13.876219
 30
0.0
 10
10.252290
 20
12.313724
 30
0.0
 10
11.502275
 20
10.751229
 30
0.0
 10
12.752260
 20
9.188762
 30
0.0
 10
14.002244
 20
7.626267
 30
0.0
 10
15.252226
 20
6.063772
 30
0.0
 10
16.502211
 20
4.501276
 30
0.0
 10
17.752196
 20
2.938781
 30
0.0
 10
19.002178
 20
1.376314
 30
0.0
 10
20.252163
 20
-0.186181
 30
0.0
 10
21.143858
 20
-0.186181
 30
0.0
 10
22.035550
 20
-0.186181
 30
0.0
 10
22.927245
 20
-0.186181
 30
0.0
 10
23.818938
 20
-0.186181
 30
0.0
 10
24.710633
 20
-0.186181
 30
0.0
 10
25.602325
 20
-0.186181
 30
0.0
 10
26.494021
 20
-0.186181
 30
0.0
 10
27.385713
 20
-0.186181
 30
0.0
 10
28.277408
 20
-0.186181
 30
0.0
 10
29.169103
 20
-0.186181
 30
0.0
 10
30.060796
 20
-0.186181
 30
0.0
 10
30.952491
 20
-0.186181
 30
0.0
 10
31.844183
 20
-0.186181
 30
0.0
 10
32.735878
 20
-0.186181
 30
0.0
 10
33.627571
 20
-0.186181
 30
0.0
 10
34.519266
 20
-0.186181
 30
0.0
 10
35.097621
 20
0.935850
 30
0.0
 10
35.748807
 20
2.003553
 30
0.0
 10
36.468919
 20
3.014445
 30
0.0
 10
37.254067
 20
3.966042
 30
0.0
 10
38.100344
 20
4.855917
 30
0.0
 10
39.003859
 20
5.681530
 30
0.0
 10
39.960708
 20
6.440425
 30
0.0
 10
40.966997
 20
7.130148
 30
0.0
 10
42.018825
 20
7.748187
 30
0.0
 10
43.112292
 20
8.292085
 30
0.0
 10
44.243501
 20
8.759361
 30
0.0
 10
45.408551
 20
9.147557
 30
0.0
 10
46.603550
 20
9.454135
 30
0.0
 10
47.824593
 20
9.676696
 30
0.0
 10
49.067785
 20
9.812699
 30
0.0
 10
50.329225
 20
9.859717
 30
0.0
 10
51.590818
 20
9.812868
 30
0.0
 10
52.834167
 20
9.676978
 30
0.0
 10
54.055371
 20
9.454530
 30
0.0
 10
55.250529
 20
9.148009
 30
0.0
 10
56.415745
 20
8.759897
 30
0.0
 10
57.547115
 20
8.292650
 30
0.0
 10
58.640743
 20
7.748779
 30
0.0
 10
59.692726
 20
7.130741
 30
0.0
 10
60.699162
 20
6.441018
 30
0.0
 10
61.656158
 20
5.682066
 30
0.0
 10
62.559805
 20
4.856397
 30
0.0
 10
63.406209
 20
3.966465
 30
0.0
 10
64.191470
 20
3.014784
 30
0.0
 10
64.911687
 20
2.003779
 30
0.0
 10
65.562957
 20
0.935963
 30
0.0
 10
66.141386
 20
-0.186181
 30
0.0
 10
67.023330
 20
-0.186181
 30
0.0
 10
67.905274
 20
-0.186181
 30
0.0
 10
68.787219
 20
-0.186181
 30
0.0
 10
69.669163
 20
-0.186181
 30
0.0
 10
70.551108
 20
-0.186181
 30
0.0
 10
71.433052
 20
-0.186181
 30
0.0
 10
72.314997
 20
-0.186181
 30
0.0
 10
73.196941
 20
-0.186181
 30
0.0
 10
74.078886
 20
-0.186181
 30
0.0
 10
74.960830
 20
-0.186181
 30
0.0
 10
75.842774
 20
-0.186181
 30
0.0
 10
76.724719
 20
-0.186181
 30
0.0
 10
77.606663
 20
-0.186181
 30
0.0
 10
78.488608
 20
-0.186181
 30
0.0
 10
79.370552
 20
-0.186181
 30
0.0
 10
80.252497
 20
-0.186181
 30
0.0
 10
81.502481
 20
1.376314
 30
0.0
 10
82.752463
 20
2.938781
 30
0.0
 10
84.002448
 20
4.501276
 30
0.0
 10
85.252433
 20
6.063772
 30
0.0
 10
86.502415
 20
7.626267
 30
0.0
 10
87.752400
 20
9.188762
 30
0.0
 10
89.002385
 20
10.751229
 30
0.0
 10
90.252367
 20
12.313724
 30
0.0
 10
91.502351
 20
13.876219
 30
0.0
 10
92.752336
 20
15.438717
 30
0.0
 10
94.002321
 20
17.001184
 30
0.0
 10
95.252303
 20
18.563679
 30
0.0
 10
96.502288
 20
20.126174
 30
0.0
 10
97.752273
 20
21.688669
 30
0.0
 10
99.002255
 20
23.251136
 30
0.0
 10
100.252239
 20
24.813637
 30
0.0
 10
99.690713
 20
29.214277
 30
0.0
 10
98.103794
 20
33.065606
 30
0.0
 10
95.637965
 20
36.404247
 30
0.0
 10
92.439710
 20
39.266821
 30
0.0
 10
88.655517
 20
41.689944
 30
0.0
 10
84.431869
 20
43.710238
 30
0.0
 10
79.915250
 20
45.364322
 30
0.0
 10
75.252148
 20
46.688822
 30
0.0
 10
70.589044
 20
47.720350
 30
0.0
 10
66.072425
 20
48.495530
 30
0.0
 10
61.848777
 20
49.050980
 30
0.0
 10
58.064583
 20
49.423321
 30
0.0
 10
54.866328
 20
49.649175
 30
0.0
 10
52.400499
 20
49.765160
 30
0.0
 10
50.813581
 20
49.807897
 30
0.0
 10
50.252054
 20
49.813993
 30
0.0
  0
ENDSEC
  0
SECTION
  2
OBJECTS
  0
DICTIONARY
  5
C
330
0
100
AcDbDictionary
  3
ACAD_GROUP
350
D
  3
ACAD_MLINESTYLE
350
17
  0
DICTIONARY
  5
D
330
C
100
AcDbDictionary
  0
DICTIONARY
  5
1A
330
C
100
AcDbDictionary
  0
DICTIONARY
  5
17
330
C
100
AcDbDictionary
  3
STANDARD
350
18
  0
DICTIONARY
  5
19
330
C
100
AcDbDictionary
  0
ENDSEC
  0
EOF
